{"event":"details","time":1611167001,"u":"16","run":"0.10","mem":"18.07","data":"BackupBuddy v8.7.2.0 using WordPress v5.6 with PHP v7.3.26 on Linux operating system."}
{"event":"details","time":1611167001,"u":"16","run":"0.10","mem":"18.07","data":"Backup mode value setting to: `1`. Profile was: `1`. Global default is: `1`."}
{"event":"details","time":1611167001,"u":"16","run":"0.10","mem":"18.08","data":"Calculated archive file: `\/var\/www\/html\/wp-content\/uploads\/backupbuddy_backups\/backup-hellosaks_com-2021_01_20-06_23pm-themes-xb39yd2r6p.zip`."}
{"event":"startFunction","time":1611167001,"u":"16","run":"0.10","mem":"18.07","data":"{\"function\":\"pre_backup\",\"title\":\"Getting ready to backup\"}"}
{"event":"details","time":1611167001,"u":"16","run":"0.10","mem":"18.07","data":"Performing pre-backup procedures."}
{"event":"message","time":1611167001,"u":"16","run":"0.10","mem":"18.07","data":"Themes only backup mode."}
{"event":"details","time":1611167001,"u":"16","run":"0.10","mem":"18.07","data":"Flushing will not be skipped (default)."}
{"event":"details","time":1611167001,"u":"16","run":"0.10","mem":"18.07","data":"Verifying directories ..."}
{"event":"details","time":1611167001,"u":"16","run":"0.10","mem":"18.07","data":"Temporary directory invalid. Updating from `\/var\/www\/html\/wp-content\/uploads\/backupbuddy_temp\/` to default."}
{"event":"details","time":1611167001,"u":"16","run":"0.10","mem":"18.09","data":"Directories verified."}
{"event":"details","time":1611167001,"u":"16","run":"0.10","mem":"18.09","data":"Backup serial generated: `xb39yd2r6p`."}
{"event":"details","time":1611167001,"u":"16","run":"0.10","mem":"18.09","data":"Loading fileoptions data instance #40 in create mode..."}
{"event":"details","time":1611167001,"u":"16","run":"0.10","mem":"18.10","data":"Created fileoptions lock file `xb39yd2r6p.txt.lock` with ID: 60089f49282b51.74324323."}
{"event":"details","time":1611167001,"u":"16","run":"0.10","mem":"18.10","data":"Fileoptions load using 0 MB of memory."}
{"event":"details","time":1611167001,"u":"16","run":"0.10","mem":"18.10","data":"Fileoptions data loaded."}
{"event":"details","time":1611167001,"u":"16","run":"0.10","mem":"18.10","data":"Updating statistics for last backup start."}
{"event":"details","time":1611167001,"u":"16","run":"0.11","mem":"18.10","data":"Temp directory: `\/var\/www\/html\/wp-content\/uploads\/backupbuddy_temp\/xb39yd2r6p\/`."}
{"event":"details","time":1611167001,"u":"16","run":"0.11","mem":"18.10","data":"Backup root: `\/var\/www\/html\/wp-content\/themes\/`."}
{"event":"message","time":1611167001,"u":"16","run":"0.11","mem":"18.10","data":"Skipping database dump based on settings \/ profile type. Backup type: `themes`."}
{"event":"details","time":1611167001,"u":"16","run":"0.11","mem":"18.10","data":"Integrity check will be performed based on settings for this profile."}
{"event":"details","time":1611167001,"u":"16","run":"0.11","mem":"18.11","data":"Fileoptions `xb39yd2r6p.txt` saved. 4072 bytes written."}
{"event":"details","time":1611167001,"u":"17","run":"0.11","mem":"18.11","data":"Creating DAT (data) file snapshotting site & backup information."}
{"event":"startSubFunction","time":1611167001,"u":"17","run":"0.11","mem":"18.10","data":"{\"function\":\"post_count\",\"title\":\"Found 3 posts, 13 pages, and 1 comments.\"}"}
{"event":"startSubFunction","time":1611167001,"u":"17","run":"0.11","mem":"18.10","data":"{\"function\":\"post_count\",\"title\":\"Found 2 user accounts.\"}"}
{"event":"details","time":1611167001,"u":"17","run":"0.11","mem":"18.10","data":"Compensating for SSL in siteurl."}
{"event":"details","time":1611167001,"u":"17","run":"0.11","mem":"18.11","data":"DAT file contents (sans database user\/pass): Array; (;     [backupbuddy_version] => 8.7.2.0;     [wordpress_version] => 5.6;     [php_version] => 7.3.26;     [backup_time] => 1611177801;     [backup_type] => themes;     [profile] => Array;         (;             [type] => themes;             [title] => Themes Only;             [skip_database_dump] => 0;             [mysqldump_additional_includes] => ;             [mysqldump_additional_excludes] => ;             [backup_nonwp_tables] => 0;             [excludes] => ;             [active_plugins_only] => 0;             [integrity_check] => 1;             [profile_globaltables] => 1;             [profile_globalexcludes] => 1;             [backup_mode] => 1;             [custom_root] => ;             [exclude_media] => 0;             [exclude_themes] => 0;             [exclude_plugins] => 0;             [tip] => Just your themes.;         ); ;     [default_profile] => Array;         (;             [type] => defaults;             [title] => Global Defaults;             [skip_database_dump] => 0;             [mysqldump_additional_includes] => ;             [mysqldump_additional_excludes] => ;             [backup_nonwp_tables] => 0;             [excludes] => ;             [active_plugins_only] => 0;             [integrity_check] => 1;             [profile_globaltables] => 1;             [profile_globalexcludes] => 1;             [backup_mode] => 1;             [custom_root] => ;             [exclude_media] => 0;             [exclude_themes] => 0;             [exclude_plugins] => 0;         ); ;     [serial] => xb39yd2r6p;     [trigger] => manual;     [wp-config_in_parent] => ;     [deployment_direction] => ;     [abspath] => \/var\/www\/html\/;     [siteurl] => https:\/\/hellosaks.com;     [homeurl] => https:\/\/hellosaks.com;     [blogname] => SAKS;     [blogdescription] => Guarde. Invista. Aumente.;     [active_plugins] => backupbuddy\/backupbuddy.php, contact-form-7\/wp-contact-form-7.php, dynamic-featured-image\/dynamic-featured-image.php, js_composer\/js_composer.php, porto-functionality\/porto-functionality.php, revslider\/revslider.php, wp-config-file-editor\/wp-config-file-editor.php;     [posts] => 3;     [pages] => 13;     [comments] => 1;     [users] => 2;     [wp_content_url] => https:\/\/hellosaks.com\/wp-content;     [wp_content_dir] => \/var\/www\/html\/wp-content;     [db_charset] => utf8mb4;     [db_collate] => utf8mb4_unicode_ci;     [db_prefix] => wp_;     [db_server] => mysql;     [db_name] => wordpress;     [db_user] => ;     [db_password] => ;     [db_exclusions] => ;     [db_inclusions] => ;     [db_version] => 5.5.5;     [breakout_tables] => Array;         (;         ); ;     [tables_sizes] => Array;         (;         ); ;     [force_single_db_file] => ;     [skip_database_dump] => 0;     [is_multisite] => ;     [is_multisite_export] => ;     [domain] => ;     [path] => ;     [upload_url] => ;     [upload_url_rewrite] => ; ); "}
{"event":"details","time":1611167001,"u":"17","run":"0.11","mem":"18.10","data":"Finished creating DAT (data) file."}
{"event":"details","time":1611167001,"u":"17","run":"0.11","mem":"18.10","data":"Deleting malware transient."}
{"event":"details","time":1611167001,"u":"17","run":"0.11","mem":"18.11","data":"Fileoptions `xb39yd2r6p.txt` saved. 4220 bytes written."}
{"event":"details","time":1611167001,"u":"17","run":"0.11","mem":"18.10","data":"Finished pre-backup procedures."}
{"event":"milestone","time":1611167001,"u":"17","run":"0.11","mem":"18.10","data":"finish_settings"}
{"event":"finishFunction","time":1611167001,"u":"17","run":"0.11","mem":"18.10","data":"{\"function\":\"pre_backup\"}"}
{"event":"message","time":1611167001,"u":"17","run":"0.11","mem":"18.10","data":"Running in classic backup mode based on settings. Mode code: `1`."}
{"event":"details","time":1611167001,"u":"17","run":"0.11","mem":"18.11","data":"Fileoptions `xb39yd2r6p.txt` saved. 4240 bytes written."}
{"event":"details","time":1611167001,"u":"17","run":"0.11","mem":"18.10","data":"Found next step to run: `backup_zip_files`."}
{"event":"details","time":1611167001,"u":"17","run":"0.11","mem":"18.10","data":"Peak memory usage: 18.15 MB"}
{"event":"details","time":1611167001,"u":"17","run":"0.11","mem":"18.10","data":"-----"}
{"event":"details","time":1611167001,"u":"17","run":"0.11","mem":"18.10","data":"Starting step function `backup_zip_files`. Attempt #1."}
{"event":"startFunction","time":1611167001,"u":"17","run":"0.11","mem":"18.10","data":"{\"function\":\"backup_zip_files\",\"title\":\"Zipping up files\"}"}
{"event":"milestone","time":1611167001,"u":"17","run":"0.11","mem":"18.10","data":"start_files"}
{"event":"details","time":1611167001,"u":"17","run":"0.11","mem":"18.10","data":"Backup root: `\/var\/www\/html\/wp-content\/themes\/`."}
{"event":"details","time":1611167001,"u":"17","run":"0.11","mem":"18.10","data":"Saving meta data to zip comment."}
{"event":"details","time":1611167001,"u":"17","run":"0.11","mem":"18.10","data":"Zip process reported: Initializing zip archive file: \/var\/www\/html\/wp-content\/uploads\/backupbuddy_backups\/temp_zip_xb39yd2r6p\/backup-hellosaks_com-2021_01_20-06_23pm-themes-xb39yd2r6p.zip"}
{"event":"details","time":1611167001,"u":"17","run":"0.11","mem":"18.10","data":"Zip process reported: Initialized zip archive file"}
{"event":"details","time":1611167001,"u":"17","run":"0.11","mem":"18.10","data":"PCLZip class not found. Attempting to load from `\/var\/www\/html\/wp-admin\/includes\/class-pclzip.php`."}
{"event":"details","time":1611167001,"u":"17","run":"0.11","mem":"18.10","data":"PCLZIP_TEMPORARY_DIR defined: `\/var\/www\/html\/wp-content\/uploads\/backupbuddy_backups\/temp_zip_xb39yd2r6p\/`"}
{"event":"details","time":1611167001,"u":"17","run":"0.12","mem":"18.11","data":"Verifying initialized zip archive file exists."}
{"event":"details","time":1611167001,"u":"17","run":"0.12","mem":"18.11","data":"File found (ziparchive): .itbub"}
{"event":"details","time":1611167001,"u":"17","run":"0.12","mem":"18.11","data":"Verified initialized zip archive file exists."}
{"event":"message","time":1611167001,"u":"17","run":"0.12","mem":"18.11","data":"Running standard ZIP system based on settings."}
{"event":"details","time":1611167001,"u":"17","run":"0.12","mem":"18.11","data":"Running under 64-bit PHP"}
{"event":"details","time":1611167001,"u":"17","run":"0.12","mem":"18.11","data":"Server API: fpm-fcgi"}
{"event":"details","time":1611167001,"u":"17","run":"0.12","mem":"18.11","data":"Using Best Available zip method based on settings."}
{"event":"details","time":1611167001,"u":"17","run":"0.12","mem":"18.11","data":"Creating ZIP file `\/var\/www\/html\/wp-content\/uploads\/backupbuddy_backups\/backup-hellosaks_com-2021_01_20-06_23pm-themes-xb39yd2r6p.zip`. Adding directory `\/var\/www\/html\/wp-content\/themes\/`. Excludes: "}
{"event":"details","time":1611167001,"u":"17","run":"0.12","mem":"18.11","data":"Trying pclzip method for ZIP."}
{"event":"details","time":1611167001,"u":"17","run":"0.12","mem":"18.11","data":"Zip process reported: Temporary working directory available: `\/var\/www\/html\/wp-content\/uploads\/backupbuddy_backups\/temp_zip_xb39yd2r6p\/`"}
{"event":"message","time":1611167001,"u":"17","run":"0.12","mem":"18.11","data":"Using Compatibility Mode."}
{"event":"message","time":1611167001,"u":"17","run":"0.12","mem":"18.11","data":"If your backup times out in Compatibility Mode try disabling zip compression in Settings."}
{"event":"message","time":1611167001,"u":"17","run":"0.12","mem":"18.11","data":"Only excluding archives directory based on settings. 0 total."}
{"event":"details","time":1611167001,"u":"17","run":"0.12","mem":"18.11","data":"Zip archive creation compression enabled based on settings."}
{"event":"details","time":1611167001,"u":"17","run":"0.12","mem":"18.11","data":"Zip archive creation symbolic links will be ignored based on settings."}
{"event":"details","time":1611167001,"u":"17","run":"0.12","mem":"18.11","data":"Zip archive creation actionable warnings will be ignored based on settings."}
{"event":"details","time":1611167001,"u":"17","run":"0.12","mem":"18.12","data":"pclzip command arguments: List: \/var\/www\/html\/wp-content\/themes\/index.php,\/var\/www...;77003;\/var\/www\/html\/wp-content\/themes\/;77020;5;78003;\u0000lambda_1"}
{"event":"details","time":1611167003,"u":"02","run":"1.96","mem":"18.12","data":"Zip process exit code: 0"}
{"event":"details","time":1611167003,"u":"02","run":"1.96","mem":"18.12","data":"Zip process reported: 0 warnings"}
{"event":"message","time":1611167003,"u":"02","run":"1.96","mem":"18.12","data":"Zip Archive file successfully created with no errors (any actionable warnings ignored by user settings)."}
{"event":"details","time":1611167003,"u":"02","run":"1.96","mem":"18.12","data":"Zip Archive file size: 19679818 bytes, owned by user:group 33:33 with permissions 0644"}
{"event":"details","time":1611167003,"u":"02","run":"1.96","mem":"18.12","data":"The pclzip method for ZIP was successful."}
{"event":"details","time":1611167003,"u":"02","run":"1.96","mem":"18.11","data":"Moving Zip Archive file to local archive directory."}
{"event":"details","time":1611167003,"u":"02","run":"1.96","mem":"18.11","data":"Zip Archive file moved to local archive directory."}
{"event":"message","time":1611167003,"u":"02","run":"1.96","mem":"18.11","data":"Backup ZIP file successfully created."}
{"event":"details","time":1611167003,"u":"02","run":"1.96","mem":"18.11","data":"Chmod of ZIP file to 0644 succeeded."}
{"event":"details","time":1611167003,"u":"02","run":"1.96","mem":"18.12","data":"Database kicker loaded. Database object class: `wpdb` with database of type `mysqli`."}
{"event":"details","time":1611167003,"u":"02","run":"1.96","mem":"18.12","data":"Pinging mysqli."}
{"event":"details","time":1611167003,"u":"02","run":"1.96","mem":"18.12","data":"Database Server connection status verified."}
{"event":"details","time":1611167003,"u":"02","run":"1.96","mem":"18.13","data":"Fileoptions `xb39yd2r6p.txt` saved. 4280 bytes written."}
{"event":"details","time":1611167003,"u":"02","run":"1.96","mem":"18.11","data":"Finished function `backup_zip_files`. Peak memory usage: 26.289 MB with BackupBuddy v8.7.2.0"}
{"event":"finishFunction","time":1611167003,"u":"02","run":"1.96","mem":"18.11","data":"{\"function\":\"backup_zip_files\"}"}
{"event":"details","time":1611167003,"u":"02","run":"1.96","mem":"18.11","data":"-----"}
{"event":"details","time":1611167003,"u":"02","run":"1.96","mem":"18.11","data":"Classic mode; skipping cron & triggering next step."}
{"event":"details","time":1611167003,"u":"02","run":"1.96","mem":"18.13","data":"Fileoptions `xb39yd2r6p.txt` saved. 4304 bytes written."}
{"event":"details","time":1611167003,"u":"02","run":"1.96","mem":"18.11","data":"Found next step to run: `integrity_check`."}
{"event":"details","time":1611167003,"u":"02","run":"1.96","mem":"18.11","data":"Peak memory usage: 26.289 MB"}
{"event":"details","time":1611167003,"u":"02","run":"1.96","mem":"18.11","data":"-----"}
{"event":"details","time":1611167003,"u":"02","run":"1.96","mem":"18.11","data":"Starting step function `integrity_check`. Attempt #1."}
{"event":"startFunction","time":1611167003,"u":"02","run":"1.96","mem":"18.11","data":"{\"function\":\"integrity_check\",\"title\":\"Verifying backup file integrity\"}"}
{"event":"milestone","time":1611167003,"u":"02","run":"1.96","mem":"18.11","data":"start_integrity"}
{"event":"message","time":1611167003,"u":"02","run":"1.96","mem":"18.11","data":"Scanning and verifying backup file integrity."}
{"event":"details","time":1611167003,"u":"02","run":"1.96","mem":"18.12","data":"Starting integrity check on `\/var\/www\/html\/wp-content\/uploads\/backupbuddy_backups\/backup-hellosaks_com-2021_01_20-06_23pm-themes-xb39yd2r6p.zip`."}
{"event":"details","time":1611167003,"u":"02","run":"1.96","mem":"18.12","data":"Started backup_integrity_check() function for `xb39yd2r6p` for file `\/var\/www\/html\/wp-content\/uploads\/backupbuddy_backups\/backup-hellosaks_com-2021_01_20-06_23pm-themes-xb39yd2r6p.zip`."}
{"event":"details","time":1611167003,"u":"02","run":"1.96","mem":"18.12","data":"Determining backup type of file `backup-hellosaks_com-2021_01_20-06_23pm-themes-xb39yd2r6p.zip`"}
{"event":"details","time":1611167003,"u":"02","run":"1.96","mem":"18.12","data":"Detecting backup type if possible."}
{"event":"details","time":1611167003,"u":"02","run":"1.96","mem":"18.12","data":"Detected backup type as `themes` via filename."}
{"event":"details","time":1611167003,"u":"02","run":"1.96","mem":"18.12","data":"Resetting backup integrity stats for backup with serial `xb39yd2r6p`."}
{"event":"details","time":1611167003,"u":"02","run":"1.96","mem":"18.12","data":"Verifying comment in zip archive."}
{"event":"details","time":1611167003,"u":"03","run":"1.98","mem":"18.12","data":"ZipArchive retrieved comment in file \/var\/www\/html\/wp-content\/uploads\/backupbuddy_backups\/backup-hellosaks_com-2021_01_20-06_23pm-themes-xb39yd2r6p.zip"}
{"event":"details","time":1611167003,"u":"03","run":"1.98","mem":"18.12","data":"NOTE: It is normal to see several \"File not found\" messages in the next several log lines."}
{"event":"details","time":1611167003,"u":"05","run":"1.99","mem":"19.46","data":"ziparchive listed file contents (\/var\/www\/html\/wp-content\/uploads\/backupbuddy_backups\/backup-hellosaks_com-2021_01_20-06_23pm-themes-xb39yd2r6p.zip)"}
{"event":"details","time":1611167003,"u":"05","run":"1.99","mem":"19.46","data":"Zip Archive file size: 19679818 bytes, owned by user:group 33:33 with permissions 0644"}
{"event":"details","time":1611167003,"u":"05","run":"2.00","mem":"18.12","data":"Retrieving zip scan log."}
{"event":"details","time":1611167003,"u":"05","run":"2.00","mem":"18.12","data":"Calculating integrity scan status,"}
{"event":"details","time":1611167003,"u":"05","run":"2.00","mem":"18.12","data":"Status: `Pass`. Description: ``."}
{"event":"details","time":1611167003,"u":"05","run":"2.00","mem":"18.12","data":"Getting file details such as size, timestamp, etc."}
{"event":"details","time":1611167003,"u":"05","run":"2.00","mem":"18.12","data":"Saving backup file integrity check details."}
{"event":"details","time":1611167003,"u":"05","run":"2.00","mem":"18.13","data":"Fileoptions `xb39yd2r6p.txt` saved. 5240 bytes written."}
{"event":"milestone","time":1611167003,"u":"05","run":"2.00","mem":"18.12","data":"finish_integrity"}
{"event":"details","time":1611167003,"u":"05","run":"2.00","mem":"18.13","data":"Fileoptions `xb39yd2r6p.txt` saved. 5272 bytes written."}
{"event":"details","time":1611167003,"u":"05","run":"2.00","mem":"18.12","data":"Finished function `integrity_check`. Peak memory usage: 26.289 MB with BackupBuddy v8.7.2.0"}
{"event":"finishFunction","time":1611167003,"u":"05","run":"2.00","mem":"18.12","data":"{\"function\":\"integrity_check\"}"}
{"event":"details","time":1611167003,"u":"05","run":"2.00","mem":"18.12","data":"-----"}
{"event":"details","time":1611167003,"u":"05","run":"2.00","mem":"18.12","data":"Classic mode; skipping cron & triggering next step."}
{"event":"details","time":1611167003,"u":"05","run":"2.00","mem":"18.13","data":"Fileoptions `xb39yd2r6p.txt` saved. 5292 bytes written."}
{"event":"details","time":1611167003,"u":"05","run":"2.00","mem":"18.12","data":"Found next step to run: `post_backup`."}
{"event":"details","time":1611167003,"u":"05","run":"2.00","mem":"18.12","data":"Peak memory usage: 26.289 MB"}
{"event":"details","time":1611167003,"u":"05","run":"2.00","mem":"18.12","data":"-----"}
{"event":"details","time":1611167003,"u":"05","run":"2.00","mem":"18.12","data":"Starting step function `post_backup`. Attempt #1."}
{"event":"startFunction","time":1611167003,"u":"05","run":"2.00","mem":"18.12","data":"{\"function\":\"post_backup\",\"title\":\"Cleaning up\"}"}
{"event":"message","time":1611167003,"u":"05","run":"2.00","mem":"18.12","data":"Cleaning up after backup."}
{"event":"details","time":1611167003,"u":"05","run":"2.00","mem":"18.12","data":"Removing temp data directory."}
{"event":"details","time":1611167003,"u":"05","run":"2.00","mem":"18.12","data":"Removing temp zip directory."}
{"event":"details","time":1611167003,"u":"05","run":"2.00","mem":"18.12","data":"Trimming old archives (if needed)."}
{"event":"details","time":1611167003,"u":"05","run":"2.00","mem":"18.12","data":"Trimmed 0 old archives based on settings archive limits."}
{"event":"details","time":1611167003,"u":"05","run":"2.00","mem":"18.13","data":"Building data file..."}
{"event":"details","time":1611167003,"u":"07","run":"2.01","mem":"19.47","data":"ziparchive listed file contents (\/var\/www\/html\/wp-content\/uploads\/backupbuddy_backups\/backup-hellosaks_com-2021_01_20-06_23pm-themes-xb39yd2r6p.zip)"}
{"event":"details","time":1611167003,"u":"07","run":"2.01","mem":"19.47","data":"Zip Archive file size: 19679818 bytes, owned by user:group 33:33 with permissions 0644"}
{"event":"details","time":1611167003,"u":"09","run":"2.03","mem":"19.47","data":"ziparchive listed file contents (\/var\/www\/html\/wp-content\/uploads\/backupbuddy_backups\/backup-hellosaks_com-2021_01_20-06_23pm-themes-xb39yd2r6p.zip\/porto\/style.css)"}
{"event":"details","time":1611167003,"u":"10","run":"2.04","mem":"19.47","data":"ziparchive listed file contents (\/var\/www\/html\/wp-content\/uploads\/backupbuddy_backups\/backup-hellosaks_com-2021_01_20-06_23pm-themes-xb39yd2r6p.zip\/porto-child\/style.css)"}
{"event":"details","time":1611167003,"u":"12","run":"2.06","mem":"19.69","data":"ziparchive listed file contents (\/var\/www\/html\/wp-content\/uploads\/backupbuddy_backups\/backup-hellosaks_com-2021_01_20-06_23pm-themes-xb39yd2r6p.zip\/twentynineteen\/style.css)"}
{"event":"details","time":1611167003,"u":"13","run":"2.07","mem":"19.80","data":"ziparchive listed file contents (\/var\/www\/html\/wp-content\/uploads\/backupbuddy_backups\/backup-hellosaks_com-2021_01_20-06_23pm-themes-xb39yd2r6p.zip\/twentytwenty\/style.css)"}
{"event":"details","time":1611167003,"u":"14","run":"2.09","mem":"19.73","data":"ziparchive listed file contents (\/var\/www\/html\/wp-content\/uploads\/backupbuddy_backups\/backup-hellosaks_com-2021_01_20-06_23pm-themes-xb39yd2r6p.zip\/twentytwentyone\/style.css)"}
{"event":"details","time":1611167003,"u":"15","run":"2.09","mem":"20.59","data":"Compressing data file..."}
{"event":"details","time":1611167003,"u":"15","run":"2.10","mem":"20.62","data":"Generating data file..."}
{"event":"details","time":1611167003,"u":"15","run":"2.10","mem":"19.46","data":"Data file created successfully."}
{"event":"details","time":1611167003,"u":"15","run":"2.10","mem":"19.46","data":"Backup data file created successfully."}
{"event":"details","time":1611167003,"u":"16","run":"2.10","mem":"19.47","data":"Fileoptions `xb39yd2r6p.txt` saved. 5336 bytes written."}
{"event":"details","time":1611167003,"u":"16","run":"2.10","mem":"19.46","data":"Final ZIP file size: 18.77 MB"}
{"event":"archiveSize","time":1611167003,"u":"16","run":"2.10","mem":"19.46","data":"18.77 MB"}
{"event":"details","time":1611167003,"u":"16","run":"2.10","mem":"19.46","data":"Updating statistics for last backup completed and number of edits since last backup."}
{"event":"details","time":1611167003,"u":"16","run":"2.11","mem":"19.53","data":"Cleaning up any old temporary zip directories in: `\/var\/www\/html\/wp-content\/uploads\/backupbuddy_temp\/`. If no recent backups then the temp directory will also be purged."}
{"event":"message","time":1611167003,"u":"16","run":"2.11","mem":"19.53","data":"Finished cleaning up."}
{"event":"archiveInfo","time":1611167003,"u":"16","run":"2.11","mem":"19.53","data":"{\"file\":\"backup-hellosaks_com-2021_01_20-06_23pm-themes-xb39yd2r6p.zip\",\"url\":\"https:\\\/\\\/hellosaks.com\\\/wp-admin\\\/admin-ajax.php?action=pb_backupbuddy_backupbuddy&function=download_archive&backupbuddy_backup=backup-hellosaks_com-2021_01_20-06_23pm-themes-xb39yd2r6p.zip\"}"}
{"event":"details","time":1611167003,"u":"16","run":"2.11","mem":"19.53","data":"Fileoptions `xb39yd2r6p.txt` saved. 5376 bytes written."}
{"event":"details","time":1611167003,"u":"16","run":"2.11","mem":"19.52","data":"Finished function `post_backup`. Peak memory usage: 26.289 MB with BackupBuddy v8.7.2.0"}
{"event":"finishFunction","time":1611167003,"u":"16","run":"2.11","mem":"19.52","data":"{\"function\":\"post_backup\"}"}
{"event":"details","time":1611167003,"u":"16","run":"2.11","mem":"19.52","data":"-----"}
{"event":"details","time":1611167003,"u":"16","run":"2.11","mem":"19.52","data":"No more backup steps remain. Finishing..."}
{"event":"details","time":1611167003,"u":"16","run":"2.11","mem":"19.53","data":"Fileoptions `xb39yd2r6p.txt` saved. 5396 bytes written."}
{"event":"startFunction","time":1611167003,"u":"16","run":"2.11","mem":"19.52","data":"{\"function\":\"backup_success\",\"title\":\"Backup completed successfully.\"}"}
{"event":"finishFunction","time":1611167003,"u":"16","run":"2.11","mem":"19.52","data":"{\"function\":\"backup_success\"}"}
{"event":"details","time":1611167003,"u":"16","run":"2.11","mem":"19.52","data":"Closing & unlocking fileoptions."}
{"event":"details","time":1611167003,"u":"17","run":"2.11","mem":"19.53","data":"Completed step function `post_backup`."}
{"event":"details","time":1611167003,"u":"17","run":"2.11","mem":"19.53","data":"Completed step function `integrity_check`."}
{"event":"details","time":1611167003,"u":"17","run":"2.11","mem":"19.53","data":"Completed step function `backup_zip_files`."}
{"event":"details","time":1611167006,"u":"04","run":"0.09","mem":"17.38","data":"Loading fileoptions data instance #29..."}
{"event":"details","time":1611167006,"u":"04","run":"0.09","mem":"17.39","data":"Fileoptions load using 0.01 MB of memory."}
{"event":"details","time":1611167006,"u":"04","run":"0.09","mem":"17.39","data":"--- New PHP process."}
{"event":"details","time":1611167006,"u":"04","run":"0.09","mem":"17.39","data":"Completed backup final ZIP file size: 18.77 MB"}
{"event":"archiveSize","time":1611167006,"u":"04","run":"0.09","mem":"17.39","data":"18.77 MB"}
{"event":"message","time":1611167006,"u":"04","run":"0.09","mem":"17.39","data":"Backup successfully completed in 2 seconds with BackupBuddy v8.7.2.0. Trigger: `manual`."}
{"event":"milestone","time":1611167006,"u":"04","run":"0.09","mem":"17.39","data":"finish_backup"}
{"event":"message","time":1611167006,"u":"04","run":"0.09","mem":"17.45","data":"Pong! Server replied."}
