{"event":"details","time":1611148691,"u":"81","run":"0.18","mem":"18.20","data":"BackupBuddy v8.7.2.0 using WordPress v5.6 with PHP v7.3.26 on Linux operating system."}
{"event":"details","time":1611148691,"u":"81","run":"0.18","mem":"18.20","data":"Backup mode value setting to: `1`. Profile was: `1`. Global default is: `1`."}
{"event":"details","time":1611148691,"u":"81","run":"0.18","mem":"18.20","data":"Calculated archive file: `\/var\/www\/html\/wp-content\/uploads\/backupbuddy_backups\/backup-hellosaks_com-2021_01_20-01_18pm-db-4vnkfe4xjo.zip`."}
{"event":"startFunction","time":1611148691,"u":"81","run":"0.18","mem":"18.20","data":"{\"function\":\"pre_backup\",\"title\":\"Getting ready to backup\"}"}
{"event":"details","time":1611148691,"u":"81","run":"0.18","mem":"18.20","data":"Performing pre-backup procedures."}
{"event":"message","time":1611148691,"u":"81","run":"0.18","mem":"18.20","data":"Database only backup mode."}
{"event":"details","time":1611148691,"u":"81","run":"0.18","mem":"18.20","data":"Flushing will not be skipped (default)."}
{"event":"details","time":1611148691,"u":"81","run":"0.18","mem":"18.20","data":"Verifying directories ..."}
{"event":"details","time":1611148691,"u":"81","run":"0.18","mem":"18.20","data":"Temporary directory invalid. Updating from `\/var\/www\/html\/wp-content\/uploads\/backupbuddy_temp\/` to default."}
{"event":"details","time":1611148691,"u":"81","run":"0.18","mem":"18.27","data":"Directories verified."}
{"event":"details","time":1611148691,"u":"81","run":"0.18","mem":"18.27","data":"Backup serial generated: `4vnkfe4xjo`."}
{"event":"details","time":1611148691,"u":"81","run":"0.18","mem":"18.27","data":"Loading fileoptions data instance #40 in create mode..."}
{"event":"details","time":1611148691,"u":"82","run":"0.19","mem":"18.28","data":"Created fileoptions lock file `4vnkfe4xjo.txt.lock` with ID: 600857c3c8be10.44306788."}
{"event":"details","time":1611148691,"u":"82","run":"0.19","mem":"18.28","data":"Fileoptions load using 0 MB of memory."}
{"event":"details","time":1611148691,"u":"82","run":"0.19","mem":"18.28","data":"Fileoptions data loaded."}
{"event":"details","time":1611148691,"u":"82","run":"0.19","mem":"18.28","data":"Updating statistics for last backup start."}
{"event":"details","time":1611148691,"u":"82","run":"0.20","mem":"18.28","data":"Temp directory: `\/var\/www\/html\/wp-content\/uploads\/backupbuddy_temp\/4vnkfe4xjo\/`."}
{"event":"details","time":1611148691,"u":"82","run":"0.20","mem":"18.28","data":"Backup root: `\/var\/www\/html\/wp-content\/uploads\/backupbuddy_temp\/4vnkfe4xjo\/`."}
{"event":"details","time":1611148691,"u":"82","run":"0.20","mem":"18.29","data":"wp-config.php found in normal location."}
{"event":"details","time":1611148691,"u":"82","run":"0.20","mem":"18.29","data":"Calculating mysql database tables to backup."}
{"event":"details","time":1611148691,"u":"82","run":"0.20","mem":"18.29","data":"Base database dump mode (before inclusions\/exclusions): `prefix`."}
{"event":"details","time":1611148691,"u":"82","run":"0.20","mem":"18.29","data":"Determining database tables with prefix `wp_`."}
{"event":"startAction","time":1611148691,"u":"82","run":"0.20","mem":"18.29","data":"schemaTables"}
{"event":"finishAction","time":1611148691,"u":"82","run":"0.20","mem":"18.26","data":"schemaTables"}
{"event":"details","time":1611148691,"u":"82","run":"0.20","mem":"18.26","data":"Base database tables based on settings (24 tables): `wp_revslider_static_slides_bkp,wp_revslider_navigations,wp_options,wp_usermeta,wp_commentmeta,wp_revslider_sliders,wp_revslider_navigations_bkp,wp_terms,wp_revslider_layer_animations,wp_termmeta,wp_revslider_slides_bkp,wp_users,wp_revslider_css_bkp,wp_term_taxonomy,wp_posts,wp_revslider_layer_animations_bkp,wp_revslider_css,wp_term_relationships,wp_revslider_slides,wp_comments,wp_revslider_static_slides,wp_revslider_sliders_bkp,wp_links,wp_postmeta`"}
{"event":"details","time":1611148691,"u":"82","run":"0.20","mem":"18.26","data":"Database tables after addition (24 tables): `wp_revslider_static_slides_bkp,wp_revslider_navigations,wp_options,wp_usermeta,wp_commentmeta,wp_revslider_sliders,wp_revslider_navigations_bkp,wp_terms,wp_revslider_layer_animations,wp_termmeta,wp_revslider_slides_bkp,wp_users,wp_revslider_css_bkp,wp_term_taxonomy,wp_posts,wp_revslider_layer_animations_bkp,wp_revslider_css,wp_term_relationships,wp_revslider_slides,wp_comments,wp_revslider_static_slides,wp_revslider_sliders_bkp,wp_links,wp_postmeta`"}
{"event":"details","time":1611148691,"u":"82","run":"0.20","mem":"18.26","data":"Database tables after exclusion (24 tables): `wp_revslider_static_slides_bkp,wp_revslider_navigations,wp_options,wp_usermeta,wp_commentmeta,wp_revslider_sliders,wp_revslider_navigations_bkp,wp_terms,wp_revslider_layer_animations,wp_termmeta,wp_revslider_slides_bkp,wp_users,wp_revslider_css_bkp,wp_term_taxonomy,wp_posts,wp_revslider_layer_animations_bkp,wp_revslider_css,wp_term_relationships,wp_revslider_slides,wp_comments,wp_revslider_static_slides,wp_revslider_sliders_bkp,wp_links,wp_postmeta`"}
{"event":"startSubFunction","time":1611148691,"u":"82","run":"0.20","mem":"18.26","data":"{\"function\":\"calculate_tables\",\"title\":\"Found 24 tables to backup based on settings.\",\"more\":\"Tables: wp_revslider_static_slides_bkp, wp_revslider_navigations, wp_options, wp_usermeta, wp_commentmeta, wp_revslider_sliders, wp_revslider_navigations_bkp, wp_terms, wp_revslider_layer_animations, wp_termmeta, wp_revslider_slides_bkp, wp_users, wp_revslider_css_bkp, wp_term_taxonomy, wp_posts, wp_revslider_layer_animations_bkp, wp_revslider_css, wp_term_relationships, wp_revslider_slides, wp_comments, wp_revslider_static_slides, wp_revslider_sliders_bkp, wp_links, wp_postmeta\"}"}
{"event":"details","time":1611148691,"u":"82","run":"0.20","mem":"18.30","data":"Total calculated database size: `4.97 MB`."}
{"event":"details","time":1611148691,"u":"82","run":"0.20","mem":"18.30","data":"Breaking out tables ENABLED based on settings. Tables to be broken out into individual steps: `wp_posts, wp_postmeta`."}
{"event":"details","time":1611148691,"u":"83","run":"0.20","mem":"18.30","data":"Integrity check will be performed based on settings for this profile."}
{"event":"details","time":1611148691,"u":"83","run":"0.20","mem":"18.32","data":"Fileoptions `4vnkfe4xjo.txt` saved. 8216 bytes written."}
{"event":"details","time":1611148691,"u":"83","run":"0.20","mem":"18.30","data":"Creating DAT (data) file snapshotting site & backup information."}
{"event":"startSubFunction","time":1611148691,"u":"83","run":"0.20","mem":"18.26","data":"{\"function\":\"post_count\",\"title\":\"Found 3 posts, 13 pages, and 1 comments.\"}"}
{"event":"startSubFunction","time":1611148691,"u":"83","run":"0.20","mem":"18.26","data":"{\"function\":\"post_count\",\"title\":\"Found 2 user accounts.\"}"}
{"event":"details","time":1611148691,"u":"83","run":"0.20","mem":"18.26","data":"Compensating for SSL in siteurl."}
{"event":"details","time":1611148691,"u":"83","run":"0.20","mem":"18.27","data":"DAT file contents (sans database user\/pass): Array; (;     [backupbuddy_version] => 8.7.2.0;     [wordpress_version] => 5.6;     [php_version] => 7.3.26;     [backup_time] => 1611159491;     [backup_type] => db;     [profile] => Array;         (;             [type] => db;             [title] => Database Only;             [skip_database_dump] => 0;             [mysqldump_additional_includes] => ;             [mysqldump_additional_excludes] => ;             [backup_nonwp_tables] => 0;             [excludes] => ;             [active_plugins_only] => 0;             [integrity_check] => 1;             [profile_globaltables] => 1;             [profile_globalexcludes] => 1;             [backup_mode] => 1;             [custom_root] => ;             [exclude_media] => 0;             [exclude_themes] => 0;             [exclude_plugins] => 0;             [tip] => Just your database. I like your minimalist style.;         ); ;     [default_profile] => Array;         (;             [type] => defaults;             [title] => Global Defaults;             [skip_database_dump] => 0;             [mysqldump_additional_includes] => ;             [mysqldump_additional_excludes] => ;             [backup_nonwp_tables] => 0;             [excludes] => ;             [active_plugins_only] => 0;             [integrity_check] => 1;             [profile_globaltables] => 1;             [profile_globalexcludes] => 1;             [backup_mode] => 1;             [custom_root] => ;             [exclude_media] => 0;             [exclude_themes] => 0;             [exclude_plugins] => 0;         ); ;     [serial] => 4vnkfe4xjo;     [trigger] => manual;     [wp-config_in_parent] => ;     [deployment_direction] => ;     [abspath] => \/var\/www\/html\/;     [siteurl] => https:\/\/hellosaks.com;     [homeurl] => https:\/\/hellosaks.com;     [blogname] => SAKS;     [blogdescription] => S\u00f3 mais um site WordPress;     [active_plugins] => backupbuddy\/backupbuddy.php, contact-form-7\/wp-contact-form-7.php, dynamic-featured-image\/dynamic-featured-image.php, js_composer\/js_composer.php, porto-functionality\/porto-functionality.php, revslider\/revslider.php, wp-config-file-editor\/wp-config-file-editor.php;     [posts] => 3;     [pages] => 13;     [comments] => 1;     [users] => 2;     [wp_content_url] => https:\/\/hellosaks.com\/wp-content;     [wp_content_dir] => \/var\/www\/html\/wp-content;     [db_charset] => utf8mb4;     [db_collate] => utf8mb4_unicode_ci;     [db_prefix] => wp_;     [db_server] => mysql;     [db_name] => wordpress;     [db_user] => ;     [db_password] => ;     [db_exclusions] => ;     [db_inclusions] => ;     [db_version] => 5.5.5;     [breakout_tables] => Array;         (;             [0] => wp_posts;             [1] => wp_postmeta;         ); ;     [tables_sizes] => Array;         (;             [wp_commentmeta] => 49152;             [wp_comments] => 98304;             [wp_links] => 32768;             [wp_options] => 2637824;             [wp_postmeta] => 163840;             [wp_posts] => 1622016;             [wp_revslider_css] => 131072;             [wp_revslider_css_bkp] => 16384;             [wp_revslider_layer_animations] => 16384;             [wp_revslider_layer_animations_bkp] => 16384;             [wp_revslider_navigations] => 16384;             [wp_revslider_navigations_bkp] => 16384;             [wp_revslider_sliders] => 16384;             [wp_revslider_sliders_bkp] => 16384;             [wp_revslider_slides] => 16384;             [wp_revslider_slides_bkp] => 16384;             [wp_revslider_static_slides] => 16384;             [wp_revslider_static_slides_bkp] => 16384;             [wp_term_relationships] => 32768;             [wp_term_taxonomy] => 49152;             [wp_termmeta] => 49152;             [wp_terms] => 49152;             [wp_usermeta] => 49152;             [wp_users] => 65536;         ); ;     [force_single_db_file] => ;     [skip_database_dump] => 0;     [is_multisite] => ;     [is_multisite_export] => ;     [domain] => ;     [path] => ;     [upload_url] => ;     [upload_url_rewrite] => ; ); "}
{"event":"details","time":1611148691,"u":"83","run":"0.20","mem":"18.26","data":"Finished creating DAT (data) file."}
{"event":"details","time":1611148691,"u":"83","run":"0.20","mem":"18.26","data":"Deleting malware transient."}
{"event":"details","time":1611148691,"u":"83","run":"0.20","mem":"18.28","data":"Fileoptions `4vnkfe4xjo.txt` saved. 8364 bytes written."}
{"event":"details","time":1611148691,"u":"83","run":"0.20","mem":"18.26","data":"Finished pre-backup procedures."}
{"event":"milestone","time":1611148691,"u":"83","run":"0.20","mem":"18.26","data":"finish_settings"}
{"event":"finishFunction","time":1611148691,"u":"83","run":"0.20","mem":"18.26","data":"{\"function\":\"pre_backup\"}"}
{"event":"message","time":1611148691,"u":"83","run":"0.20","mem":"18.25","data":"Running in classic backup mode based on settings. Mode code: `1`."}
{"event":"details","time":1611148691,"u":"83","run":"0.20","mem":"18.27","data":"Fileoptions `4vnkfe4xjo.txt` saved. 8384 bytes written."}
{"event":"details","time":1611148691,"u":"83","run":"0.20","mem":"18.25","data":"Found next step to run: `backup_create_database_dump`."}
{"event":"details","time":1611148691,"u":"83","run":"0.20","mem":"18.25","data":"Peak memory usage: 19.216 MB"}
{"event":"details","time":1611148691,"u":"83","run":"0.20","mem":"18.25","data":"-----"}
{"event":"details","time":1611148691,"u":"83","run":"0.20","mem":"18.25","data":"Starting step function `backup_create_database_dump`. Attempt #1."}
{"event":"startFunction","time":1611148691,"u":"83","run":"0.20","mem":"18.25","data":"{\"function\":\"backup_create_database_dump\",\"title\":\"Backing up database\"}"}
{"event":"milestone","time":1611148691,"u":"83","run":"0.20","mem":"18.25","data":"start_database"}
{"event":"message","time":1611148691,"u":"83","run":"0.20","mem":"18.25","data":"Starting database backup process."}
{"event":"details","time":1611148691,"u":"83","run":"0.21","mem":"18.26","data":"PHP-based mysqldump (if applicable) max rows per select set to 1000."}
{"event":"details","time":1611148691,"u":"84","run":"0.21","mem":"18.26","data":"Database host for dumping: `mysql`"}
{"event":"details","time":1611148691,"u":"84","run":"0.21","mem":"18.26","data":"Loading mysqlbuddy library."}
{"event":"details","time":1611148691,"u":"84","run":"0.21","mem":"18.26","data":"Mysql server default directories: `\/usr\/bin\/,\/usr\/bin\/mysql\/,\/usr\/local\/bin\/`"}
{"event":"details","time":1611148691,"u":"84","run":"0.21","mem":"18.26","data":"mysqlbuddy: Force method of `1` passed."}
{"event":"message","time":1611148691,"u":"84","run":"0.21","mem":"18.26","data":"mysqlbuddy: Settings overriding automatic detection of available database dump methods. Using forced override methods: `php`."}
{"event":"message","time":1611148691,"u":"84","run":"0.21","mem":"18.26","data":"mysqlbuddy: Detected database dump methods: `php`."}
{"event":"details","time":1611148691,"u":"84","run":"0.21","mem":"18.26","data":"Max execution time chunking disabled by passing -1 to constructor. No chunking will be used for the database dump."}
{"event":"details","time":1611148691,"u":"84","run":"0.21","mem":"18.26","data":"This server's mariadb version: `10.5.8`."}
{"event":"milestone","time":1611148691,"u":"84","run":"0.21","mem":"18.26","data":"start_database"}
{"event":"message","time":1611148691,"u":"84","run":"0.21","mem":"18.26","data":"Starting database dump procedure."}
{"event":"details","time":1611148691,"u":"84","run":"0.21","mem":"18.26","data":"mysqlbuddy: Output directory: `\/var\/www\/html\/wp-content\/uploads\/backupbuddy_temp\/4vnkfe4xjo\/`."}
{"event":"details","time":1611148691,"u":"84","run":"0.21","mem":"18.26","data":"Table dump count: `22`."}
{"event":"details","time":1611148691,"u":"84","run":"0.21","mem":"18.26","data":"Preparing to dump using available method(s) by priority. Methods: `php`"}
{"event":"details","time":1611148691,"u":"84","run":"0.21","mem":"18.26","data":"mysqlbuddy: Attempting dump method `php`."}
{"event":"details","time":1611148691,"u":"84","run":"0.21","mem":"18.26","data":"Loading DB kicker for use leter in case database goes away."}
{"event":"details","time":1611148691,"u":"84","run":"0.21","mem":"18.26","data":"Database kicker loaded. Database object class: `wpdb` with database of type `mysqli`."}
{"event":"details","time":1611148691,"u":"84","run":"0.21","mem":"18.26","data":"Dumping database table `wp_revslider_static_slides_bkp`. Max rows per select: 1000. Starting at row `0`."}
{"event":"startTableDump","time":1611148691,"u":"84","run":"0.21","mem":"18.26","data":"wp_revslider_static_slides_bkp"}
{"event":"details","time":1611148691,"u":"84","run":"0.21","mem":"18.26","data":"SQL dump file `\/var\/www\/html\/wp-content\/uploads\/backupbuddy_temp\/4vnkfe4xjo\/wp_revslider_static_slides_bkp.sql`."}
{"event":"details","time":1611148691,"u":"84","run":"0.21","mem":"18.26","data":"Database max execution time chunking disabled based on -1 passed."}
{"event":"sqlFile","time":1611148691,"u":"84","run":"0.21","mem":"18.26","data":"wp_revslider_static_slides_bkp.sql"}
{"event":"details","time":1611148691,"u":"84","run":"0.21","mem":"18.26","data":"Got `0` rows from `wp_revslider_static_slides_bkp` of `1000` max."}
{"event":"details","time":1611148691,"u":"84","run":"0.21","mem":"18.27","data":"Dumped `0` rows total from `wp_revslider_static_slides_bkp`. No rows remain."}
{"event":"details","time":1611148691,"u":"84","run":"0.21","mem":"18.27","data":"Pinging mysqli."}
{"event":"details","time":1611148691,"u":"84","run":"0.21","mem":"18.27","data":"Database Server connection status verified."}
{"event":"details","time":1611148691,"u":"84","run":"0.21","mem":"18.27","data":"Finished dumping database table `wp_revslider_static_slides_bkp`."}
{"event":"finishTableDump","time":1611148691,"u":"84","run":"0.21","mem":"18.27","data":"wp_revslider_static_slides_bkp"}
{"event":"details","time":1611148691,"u":"84","run":"0.21","mem":"18.27","data":"Database SQL dump file (wp_revslider_static_slides_bkp.sql) size: 508 Bytes"}
{"event":"sqlSize","time":1611148691,"u":"84","run":"0.21","mem":"18.27","data":"508"}
{"event":"details","time":1611148691,"u":"84","run":"0.21","mem":"18.27","data":"About to flush..."}
{"event":"details","time":1611148691,"u":"84","run":"0.21","mem":"18.27","data":"Dumping database table `wp_revslider_navigations`. Max rows per select: 1000. Starting at row `0`."}
{"event":"startTableDump","time":1611148691,"u":"84","run":"0.21","mem":"18.27","data":"wp_revslider_navigations"}
{"event":"details","time":1611148691,"u":"84","run":"0.21","mem":"18.27","data":"SQL dump file `\/var\/www\/html\/wp-content\/uploads\/backupbuddy_temp\/4vnkfe4xjo\/wp_revslider_navigations.sql`."}
{"event":"details","time":1611148691,"u":"84","run":"0.21","mem":"18.27","data":"Database max execution time chunking disabled based on -1 passed."}
{"event":"sqlFile","time":1611148691,"u":"84","run":"0.21","mem":"18.27","data":"wp_revslider_navigations.sql"}
{"event":"details","time":1611148691,"u":"84","run":"0.21","mem":"18.27","data":"Got `0` rows from `wp_revslider_navigations` of `1000` max."}
{"event":"details","time":1611148691,"u":"84","run":"0.22","mem":"18.28","data":"Dumped `0` rows total from `wp_revslider_navigations`. No rows remain."}
{"event":"details","time":1611148691,"u":"84","run":"0.22","mem":"18.28","data":"Pinging mysqli."}
{"event":"details","time":1611148691,"u":"84","run":"0.22","mem":"18.28","data":"Database Server connection status verified."}
{"event":"details","time":1611148691,"u":"84","run":"0.22","mem":"18.28","data":"Finished dumping database table `wp_revslider_navigations`."}
{"event":"finishTableDump","time":1611148691,"u":"84","run":"0.22","mem":"18.28","data":"wp_revslider_navigations"}
{"event":"details","time":1611148691,"u":"84","run":"0.22","mem":"18.28","data":"Database SQL dump file (wp_revslider_navigations.sql) size: 560 Bytes"}
{"event":"sqlSize","time":1611148691,"u":"84","run":"0.22","mem":"18.28","data":"560"}
{"event":"details","time":1611148691,"u":"84","run":"0.22","mem":"18.28","data":"About to flush..."}
{"event":"details","time":1611148691,"u":"84","run":"0.22","mem":"18.28","data":"Dumping database table `wp_options`. Max rows per select: 1000. Starting at row `0`."}
{"event":"startTableDump","time":1611148691,"u":"84","run":"0.22","mem":"18.28","data":"wp_options"}
{"event":"details","time":1611148691,"u":"84","run":"0.22","mem":"18.28","data":"SQL dump file `\/var\/www\/html\/wp-content\/uploads\/backupbuddy_temp\/4vnkfe4xjo\/wp_options.sql`."}
{"event":"details","time":1611148691,"u":"84","run":"0.22","mem":"18.28","data":"Database max execution time chunking disabled based on -1 passed."}
{"event":"sqlFile","time":1611148691,"u":"84","run":"0.22","mem":"18.28","data":"wp_options.sql"}
{"event":"details","time":1611148691,"u":"85","run":"0.22","mem":"23.12","data":"Got `245` rows from `wp_options` of `1000` max."}
{"event":"details","time":1611148691,"u":"87","run":"0.24","mem":"23.13","data":"Dumped `245` rows total from `wp_options`. No rows remain."}
{"event":"details","time":1611148691,"u":"87","run":"0.24","mem":"23.13","data":"Pinging mysqli."}
{"event":"details","time":1611148691,"u":"87","run":"0.24","mem":"23.13","data":"Database Server connection status verified."}
{"event":"details","time":1611148691,"u":"87","run":"0.24","mem":"23.13","data":"Finished dumping database table `wp_options`."}
{"event":"finishTableDump","time":1611148691,"u":"87","run":"0.24","mem":"23.13","data":"wp_options"}
{"event":"details","time":1611148691,"u":"87","run":"0.24","mem":"23.13","data":"Database SQL dump file (wp_options.sql) size: 2.15 MB"}
{"event":"sqlSize","time":1611148691,"u":"87","run":"0.24","mem":"23.13","data":"2256153"}
{"event":"details","time":1611148691,"u":"87","run":"0.24","mem":"23.13","data":"About to flush..."}
{"event":"details","time":1611148691,"u":"87","run":"0.24","mem":"23.13","data":"Dumping database table `wp_usermeta`. Max rows per select: 1000. Starting at row `0`."}
{"event":"startTableDump","time":1611148691,"u":"87","run":"0.24","mem":"23.13","data":"wp_usermeta"}
{"event":"details","time":1611148691,"u":"87","run":"0.24","mem":"23.13","data":"SQL dump file `\/var\/www\/html\/wp-content\/uploads\/backupbuddy_temp\/4vnkfe4xjo\/wp_usermeta.sql`."}
{"event":"details","time":1611148691,"u":"87","run":"0.24","mem":"23.13","data":"Database max execution time chunking disabled based on -1 passed."}
{"event":"sqlFile","time":1611148691,"u":"87","run":"0.24","mem":"23.13","data":"wp_usermeta.sql"}
{"event":"details","time":1611148691,"u":"87","run":"0.25","mem":"18.32","data":"Got `46` rows from `wp_usermeta` of `1000` max."}
{"event":"details","time":1611148691,"u":"87","run":"0.25","mem":"18.32","data":"Dumped `46` rows total from `wp_usermeta`. No rows remain."}
{"event":"details","time":1611148691,"u":"87","run":"0.25","mem":"18.32","data":"Pinging mysqli."}
{"event":"details","time":1611148691,"u":"87","run":"0.25","mem":"18.32","data":"Database Server connection status verified."}
{"event":"details","time":1611148691,"u":"87","run":"0.25","mem":"18.32","data":"Finished dumping database table `wp_usermeta`."}
{"event":"finishTableDump","time":1611148691,"u":"87","run":"0.25","mem":"18.32","data":"wp_usermeta"}
{"event":"details","time":1611148691,"u":"87","run":"0.25","mem":"18.32","data":"Database SQL dump file (wp_usermeta.sql) size: 8 KB"}
{"event":"sqlSize","time":1611148691,"u":"87","run":"0.25","mem":"18.32","data":"7979"}
{"event":"details","time":1611148691,"u":"87","run":"0.25","mem":"18.32","data":"About to flush..."}
{"event":"details","time":1611148691,"u":"87","run":"0.25","mem":"18.32","data":"Dumping database table `wp_commentmeta`. Max rows per select: 1000. Starting at row `0`."}
{"event":"startTableDump","time":1611148691,"u":"87","run":"0.25","mem":"18.32","data":"wp_commentmeta"}
{"event":"details","time":1611148691,"u":"87","run":"0.25","mem":"18.32","data":"SQL dump file `\/var\/www\/html\/wp-content\/uploads\/backupbuddy_temp\/4vnkfe4xjo\/wp_commentmeta.sql`."}
{"event":"details","time":1611148691,"u":"87","run":"0.25","mem":"18.32","data":"Database max execution time chunking disabled based on -1 passed."}
{"event":"sqlFile","time":1611148691,"u":"87","run":"0.25","mem":"18.32","data":"wp_commentmeta.sql"}
{"event":"details","time":1611148691,"u":"88","run":"0.25","mem":"18.27","data":"Got `0` rows from `wp_commentmeta` of `1000` max."}
{"event":"details","time":1611148691,"u":"88","run":"0.25","mem":"18.27","data":"Dumped `0` rows total from `wp_commentmeta`. No rows remain."}
{"event":"details","time":1611148691,"u":"88","run":"0.25","mem":"18.27","data":"Pinging mysqli."}
{"event":"details","time":1611148691,"u":"88","run":"0.25","mem":"18.27","data":"Database Server connection status verified."}
{"event":"details","time":1611148691,"u":"88","run":"0.25","mem":"18.27","data":"Finished dumping database table `wp_commentmeta`."}
{"event":"finishTableDump","time":1611148691,"u":"88","run":"0.25","mem":"18.27","data":"wp_commentmeta"}
{"event":"details","time":1611148691,"u":"88","run":"0.25","mem":"18.27","data":"Database SQL dump file (wp_commentmeta.sql) size: 644 Bytes"}
{"event":"sqlSize","time":1611148691,"u":"88","run":"0.25","mem":"18.27","data":"644"}
{"event":"details","time":1611148691,"u":"88","run":"0.25","mem":"18.27","data":"About to flush..."}
{"event":"details","time":1611148691,"u":"88","run":"0.25","mem":"18.27","data":"Dumping database table `wp_revslider_sliders`. Max rows per select: 1000. Starting at row `0`."}
{"event":"startTableDump","time":1611148691,"u":"88","run":"0.25","mem":"18.27","data":"wp_revslider_sliders"}
{"event":"details","time":1611148691,"u":"88","run":"0.25","mem":"18.27","data":"SQL dump file `\/var\/www\/html\/wp-content\/uploads\/backupbuddy_temp\/4vnkfe4xjo\/wp_revslider_sliders.sql`."}
{"event":"details","time":1611148691,"u":"88","run":"0.25","mem":"18.27","data":"Database max execution time chunking disabled based on -1 passed."}
{"event":"sqlFile","time":1611148691,"u":"88","run":"0.25","mem":"18.27","data":"wp_revslider_sliders.sql"}
{"event":"details","time":1611148691,"u":"88","run":"0.25","mem":"18.28","data":"Got `1` rows from `wp_revslider_sliders` of `1000` max."}
{"event":"details","time":1611148691,"u":"88","run":"0.25","mem":"18.28","data":"Dumped `1` rows total from `wp_revslider_sliders`. No rows remain."}
{"event":"details","time":1611148691,"u":"88","run":"0.25","mem":"18.28","data":"Pinging mysqli."}
{"event":"details","time":1611148691,"u":"88","run":"0.25","mem":"18.28","data":"Database Server connection status verified."}
{"event":"details","time":1611148691,"u":"88","run":"0.25","mem":"18.28","data":"Finished dumping database table `wp_revslider_sliders`."}
{"event":"finishTableDump","time":1611148691,"u":"88","run":"0.25","mem":"18.28","data":"wp_revslider_sliders"}
{"event":"details","time":1611148691,"u":"88","run":"0.25","mem":"18.28","data":"Database SQL dump file (wp_revslider_sliders.sql) size: 10 KB"}
{"event":"sqlSize","time":1611148691,"u":"88","run":"0.25","mem":"18.28","data":"9991"}
{"event":"details","time":1611148691,"u":"88","run":"0.25","mem":"18.28","data":"About to flush..."}
{"event":"details","time":1611148691,"u":"88","run":"0.25","mem":"18.28","data":"Dumping database table `wp_revslider_navigations_bkp`. Max rows per select: 1000. Starting at row `0`."}
{"event":"startTableDump","time":1611148691,"u":"88","run":"0.25","mem":"18.28","data":"wp_revslider_navigations_bkp"}
{"event":"details","time":1611148691,"u":"88","run":"0.25","mem":"18.28","data":"SQL dump file `\/var\/www\/html\/wp-content\/uploads\/backupbuddy_temp\/4vnkfe4xjo\/wp_revslider_navigations_bkp.sql`."}
{"event":"details","time":1611148691,"u":"88","run":"0.25","mem":"18.28","data":"Database max execution time chunking disabled based on -1 passed."}
{"event":"sqlFile","time":1611148691,"u":"88","run":"0.25","mem":"18.28","data":"wp_revslider_navigations_bkp.sql"}
{"event":"details","time":1611148691,"u":"88","run":"0.25","mem":"18.27","data":"Got `0` rows from `wp_revslider_navigations_bkp` of `1000` max."}
{"event":"details","time":1611148691,"u":"88","run":"0.25","mem":"18.28","data":"Dumped `0` rows total from `wp_revslider_navigations_bkp`. No rows remain."}
{"event":"details","time":1611148691,"u":"88","run":"0.25","mem":"18.28","data":"Pinging mysqli."}
{"event":"details","time":1611148691,"u":"88","run":"0.25","mem":"18.28","data":"Database Server connection status verified."}
{"event":"details","time":1611148691,"u":"88","run":"0.25","mem":"18.28","data":"Finished dumping database table `wp_revslider_navigations_bkp`."}
{"event":"finishTableDump","time":1611148691,"u":"88","run":"0.25","mem":"18.28","data":"wp_revslider_navigations_bkp"}
{"event":"details","time":1611148691,"u":"88","run":"0.25","mem":"18.28","data":"Database SQL dump file (wp_revslider_navigations_bkp.sql) size: 572 Bytes"}
{"event":"sqlSize","time":1611148691,"u":"88","run":"0.25","mem":"18.28","data":"572"}
{"event":"details","time":1611148691,"u":"88","run":"0.25","mem":"18.28","data":"About to flush..."}
{"event":"details","time":1611148691,"u":"88","run":"0.25","mem":"18.28","data":"Dumping database table `wp_terms`. Max rows per select: 1000. Starting at row `0`."}
{"event":"startTableDump","time":1611148691,"u":"88","run":"0.25","mem":"18.28","data":"wp_terms"}
{"event":"details","time":1611148691,"u":"88","run":"0.25","mem":"18.28","data":"SQL dump file `\/var\/www\/html\/wp-content\/uploads\/backupbuddy_temp\/4vnkfe4xjo\/wp_terms.sql`."}
{"event":"details","time":1611148691,"u":"88","run":"0.25","mem":"18.28","data":"Database max execution time chunking disabled based on -1 passed."}
{"event":"sqlFile","time":1611148691,"u":"88","run":"0.25","mem":"18.28","data":"wp_terms.sql"}
{"event":"details","time":1611148691,"u":"88","run":"0.25","mem":"18.28","data":"Got `3` rows from `wp_terms` of `1000` max."}
{"event":"details","time":1611148691,"u":"88","run":"0.25","mem":"18.27","data":"Dumped `3` rows total from `wp_terms`. No rows remain."}
{"event":"details","time":1611148691,"u":"88","run":"0.25","mem":"18.27","data":"Pinging mysqli."}
{"event":"details","time":1611148691,"u":"88","run":"0.25","mem":"18.27","data":"Database Server connection status verified."}
{"event":"details","time":1611148691,"u":"88","run":"0.25","mem":"18.27","data":"Finished dumping database table `wp_terms`."}
{"event":"finishTableDump","time":1611148691,"u":"88","run":"0.25","mem":"18.27","data":"wp_terms"}
{"event":"details","time":1611148691,"u":"88","run":"0.25","mem":"18.27","data":"Database SQL dump file (wp_terms.sql) size: 818 Bytes"}
{"event":"sqlSize","time":1611148691,"u":"88","run":"0.25","mem":"18.27","data":"818"}
{"event":"details","time":1611148691,"u":"88","run":"0.25","mem":"18.27","data":"About to flush..."}
{"event":"details","time":1611148691,"u":"88","run":"0.25","mem":"18.27","data":"Dumping database table `wp_revslider_layer_animations`. Max rows per select: 1000. Starting at row `0`."}
{"event":"startTableDump","time":1611148691,"u":"88","run":"0.25","mem":"18.27","data":"wp_revslider_layer_animations"}
{"event":"details","time":1611148691,"u":"88","run":"0.25","mem":"18.27","data":"SQL dump file `\/var\/www\/html\/wp-content\/uploads\/backupbuddy_temp\/4vnkfe4xjo\/wp_revslider_layer_animations.sql`."}
{"event":"details","time":1611148691,"u":"88","run":"0.25","mem":"18.27","data":"Database max execution time chunking disabled based on -1 passed."}
{"event":"sqlFile","time":1611148691,"u":"88","run":"0.25","mem":"18.27","data":"wp_revslider_layer_animations.sql"}
{"event":"details","time":1611148691,"u":"88","run":"0.25","mem":"18.27","data":"Got `0` rows from `wp_revslider_layer_animations` of `1000` max."}
{"event":"details","time":1611148691,"u":"88","run":"0.25","mem":"18.27","data":"Dumped `0` rows total from `wp_revslider_layer_animations`. No rows remain."}
{"event":"details","time":1611148691,"u":"88","run":"0.25","mem":"18.27","data":"Pinging mysqli."}
{"event":"details","time":1611148691,"u":"88","run":"0.25","mem":"18.27","data":"Database Server connection status verified."}
{"event":"details","time":1611148691,"u":"88","run":"0.25","mem":"18.27","data":"Finished dumping database table `wp_revslider_layer_animations`."}
{"event":"finishTableDump","time":1611148691,"u":"88","run":"0.25","mem":"18.27","data":"wp_revslider_layer_animations"}
{"event":"details","time":1611148691,"u":"88","run":"0.26","mem":"18.27","data":"Database SQL dump file (wp_revslider_layer_animations.sql) size: 471 Bytes"}
{"event":"sqlSize","time":1611148691,"u":"88","run":"0.26","mem":"18.27","data":"471"}
{"event":"details","time":1611148691,"u":"88","run":"0.26","mem":"18.27","data":"About to flush..."}
{"event":"details","time":1611148691,"u":"88","run":"0.26","mem":"18.27","data":"Dumping database table `wp_termmeta`. Max rows per select: 1000. Starting at row `0`."}
{"event":"startTableDump","time":1611148691,"u":"88","run":"0.26","mem":"18.27","data":"wp_termmeta"}
{"event":"details","time":1611148691,"u":"88","run":"0.26","mem":"18.27","data":"SQL dump file `\/var\/www\/html\/wp-content\/uploads\/backupbuddy_temp\/4vnkfe4xjo\/wp_termmeta.sql`."}
{"event":"details","time":1611148691,"u":"88","run":"0.26","mem":"18.27","data":"Database max execution time chunking disabled based on -1 passed."}
{"event":"sqlFile","time":1611148691,"u":"88","run":"0.26","mem":"18.27","data":"wp_termmeta.sql"}
{"event":"details","time":1611148691,"u":"88","run":"0.26","mem":"18.27","data":"Got `0` rows from `wp_termmeta` of `1000` max."}
{"event":"details","time":1611148691,"u":"88","run":"0.26","mem":"18.27","data":"Dumped `0` rows total from `wp_termmeta`. No rows remain."}
{"event":"details","time":1611148691,"u":"88","run":"0.26","mem":"18.27","data":"Pinging mysqli."}
{"event":"details","time":1611148691,"u":"88","run":"0.26","mem":"18.27","data":"Database Server connection status verified."}
{"event":"details","time":1611148691,"u":"88","run":"0.26","mem":"18.27","data":"Finished dumping database table `wp_termmeta`."}
{"event":"finishTableDump","time":1611148691,"u":"88","run":"0.26","mem":"18.27","data":"wp_termmeta"}
{"event":"details","time":1611148691,"u":"88","run":"0.26","mem":"18.27","data":"Database SQL dump file (wp_termmeta.sql) size: 626 Bytes"}
{"event":"sqlSize","time":1611148691,"u":"88","run":"0.26","mem":"18.27","data":"626"}
{"event":"details","time":1611148691,"u":"88","run":"0.26","mem":"18.27","data":"About to flush..."}
{"event":"details","time":1611148691,"u":"88","run":"0.26","mem":"18.27","data":"Dumping database table `wp_revslider_slides_bkp`. Max rows per select: 1000. Starting at row `0`."}
{"event":"startTableDump","time":1611148691,"u":"88","run":"0.26","mem":"18.27","data":"wp_revslider_slides_bkp"}
{"event":"details","time":1611148691,"u":"88","run":"0.26","mem":"18.27","data":"SQL dump file `\/var\/www\/html\/wp-content\/uploads\/backupbuddy_temp\/4vnkfe4xjo\/wp_revslider_slides_bkp.sql`."}
{"event":"details","time":1611148691,"u":"88","run":"0.26","mem":"18.27","data":"Database max execution time chunking disabled based on -1 passed."}
{"event":"sqlFile","time":1611148691,"u":"88","run":"0.26","mem":"18.27","data":"wp_revslider_slides_bkp.sql"}
{"event":"details","time":1611148691,"u":"89","run":"0.26","mem":"18.27","data":"Got `0` rows from `wp_revslider_slides_bkp` of `1000` max."}
{"event":"details","time":1611148691,"u":"89","run":"0.26","mem":"18.28","data":"Dumped `0` rows total from `wp_revslider_slides_bkp`. No rows remain."}
{"event":"details","time":1611148691,"u":"89","run":"0.26","mem":"18.28","data":"Pinging mysqli."}
{"event":"details","time":1611148691,"u":"89","run":"0.26","mem":"18.28","data":"Database Server connection status verified."}
{"event":"details","time":1611148691,"u":"89","run":"0.26","mem":"18.27","data":"Finished dumping database table `wp_revslider_slides_bkp`."}
{"event":"finishTableDump","time":1611148691,"u":"89","run":"0.26","mem":"18.27","data":"wp_revslider_slides_bkp"}
{"event":"details","time":1611148691,"u":"89","run":"0.26","mem":"18.27","data":"Database SQL dump file (wp_revslider_slides_bkp.sql) size: 531 Bytes"}
{"event":"sqlSize","time":1611148691,"u":"89","run":"0.26","mem":"18.27","data":"531"}
{"event":"details","time":1611148691,"u":"89","run":"0.26","mem":"18.27","data":"About to flush..."}
{"event":"details","time":1611148691,"u":"89","run":"0.26","mem":"18.27","data":"Dumping database table `wp_users`. Max rows per select: 1000. Starting at row `0`."}
{"event":"startTableDump","time":1611148691,"u":"89","run":"0.26","mem":"18.27","data":"wp_users"}
{"event":"details","time":1611148691,"u":"89","run":"0.26","mem":"18.27","data":"SQL dump file `\/var\/www\/html\/wp-content\/uploads\/backupbuddy_temp\/4vnkfe4xjo\/wp_users.sql`."}
{"event":"details","time":1611148691,"u":"89","run":"0.26","mem":"18.27","data":"Database max execution time chunking disabled based on -1 passed."}
{"event":"sqlFile","time":1611148691,"u":"89","run":"0.26","mem":"18.27","data":"wp_users.sql"}
{"event":"details","time":1611148691,"u":"89","run":"0.26","mem":"18.27","data":"Got `2` rows from `wp_users` of `1000` max."}
{"event":"details","time":1611148691,"u":"89","run":"0.26","mem":"18.28","data":"Dumped `2` rows total from `wp_users`. No rows remain."}
{"event":"details","time":1611148691,"u":"89","run":"0.26","mem":"18.28","data":"Pinging mysqli."}
{"event":"details","time":1611148691,"u":"89","run":"0.26","mem":"18.28","data":"Database Server connection status verified."}
{"event":"details","time":1611148691,"u":"89","run":"0.26","mem":"18.28","data":"Finished dumping database table `wp_users`."}
{"event":"finishTableDump","time":1611148691,"u":"89","run":"0.26","mem":"18.28","data":"wp_users"}
{"event":"details","time":1611148691,"u":"89","run":"0.26","mem":"18.28","data":"Database SQL dump file (wp_users.sql) size: 1 KB"}
{"event":"sqlSize","time":1611148691,"u":"89","run":"0.26","mem":"18.28","data":"1524"}
{"event":"details","time":1611148691,"u":"89","run":"0.26","mem":"18.28","data":"About to flush..."}
{"event":"details","time":1611148691,"u":"89","run":"0.26","mem":"18.28","data":"Dumping database table `wp_revslider_css_bkp`. Max rows per select: 1000. Starting at row `0`."}
{"event":"startTableDump","time":1611148691,"u":"89","run":"0.26","mem":"18.28","data":"wp_revslider_css_bkp"}
{"event":"details","time":1611148691,"u":"89","run":"0.26","mem":"18.28","data":"SQL dump file `\/var\/www\/html\/wp-content\/uploads\/backupbuddy_temp\/4vnkfe4xjo\/wp_revslider_css_bkp.sql`."}
{"event":"details","time":1611148691,"u":"89","run":"0.26","mem":"18.28","data":"Database max execution time chunking disabled based on -1 passed."}
{"event":"sqlFile","time":1611148691,"u":"89","run":"0.26","mem":"18.28","data":"wp_revslider_css_bkp.sql"}
{"event":"details","time":1611148691,"u":"89","run":"0.26","mem":"18.35","data":"Got `47` rows from `wp_revslider_css_bkp` of `1000` max."}
{"event":"details","time":1611148691,"u":"89","run":"0.26","mem":"18.36","data":"Dumped `47` rows total from `wp_revslider_css_bkp`. No rows remain."}
{"event":"details","time":1611148691,"u":"89","run":"0.26","mem":"18.36","data":"Pinging mysqli."}
{"event":"details","time":1611148691,"u":"89","run":"0.26","mem":"18.36","data":"Database Server connection status verified."}
{"event":"details","time":1611148691,"u":"89","run":"0.26","mem":"18.36","data":"Finished dumping database table `wp_revslider_css_bkp`."}
{"event":"finishTableDump","time":1611148691,"u":"89","run":"0.26","mem":"18.36","data":"wp_revslider_css_bkp"}
{"event":"details","time":1611148691,"u":"89","run":"0.26","mem":"18.36","data":"Database SQL dump file (wp_revslider_css_bkp.sql) size: 19 KB"}
{"event":"sqlSize","time":1611148691,"u":"89","run":"0.26","mem":"18.36","data":"19325"}
{"event":"details","time":1611148691,"u":"89","run":"0.26","mem":"18.36","data":"About to flush..."}
{"event":"details","time":1611148691,"u":"89","run":"0.26","mem":"18.36","data":"Dumping database table `wp_term_taxonomy`. Max rows per select: 1000. Starting at row `0`."}
{"event":"startTableDump","time":1611148691,"u":"89","run":"0.26","mem":"18.36","data":"wp_term_taxonomy"}
{"event":"details","time":1611148691,"u":"89","run":"0.26","mem":"18.36","data":"SQL dump file `\/var\/www\/html\/wp-content\/uploads\/backupbuddy_temp\/4vnkfe4xjo\/wp_term_taxonomy.sql`."}
{"event":"details","time":1611148691,"u":"89","run":"0.26","mem":"18.36","data":"Database max execution time chunking disabled based on -1 passed."}
{"event":"sqlFile","time":1611148691,"u":"89","run":"0.26","mem":"18.36","data":"wp_term_taxonomy.sql"}
{"event":"details","time":1611148691,"u":"89","run":"0.26","mem":"18.27","data":"Got `3` rows from `wp_term_taxonomy` of `1000` max."}
{"event":"details","time":1611148691,"u":"89","run":"0.26","mem":"18.28","data":"Dumped `3` rows total from `wp_term_taxonomy`. No rows remain."}
{"event":"details","time":1611148691,"u":"89","run":"0.26","mem":"18.28","data":"Pinging mysqli."}
{"event":"details","time":1611148691,"u":"89","run":"0.26","mem":"18.28","data":"Database Server connection status verified."}
{"event":"details","time":1611148691,"u":"89","run":"0.26","mem":"18.28","data":"Finished dumping database table `wp_term_taxonomy`."}
{"event":"finishTableDump","time":1611148691,"u":"89","run":"0.26","mem":"18.28","data":"wp_term_taxonomy"}
{"event":"details","time":1611148691,"u":"89","run":"0.26","mem":"18.28","data":"Database SQL dump file (wp_term_taxonomy.sql) size: 1 KB"}
{"event":"sqlSize","time":1611148691,"u":"89","run":"0.26","mem":"18.28","data":"1026"}
{"event":"details","time":1611148691,"u":"89","run":"0.26","mem":"18.28","data":"About to flush..."}
{"event":"details","time":1611148691,"u":"89","run":"0.26","mem":"18.28","data":"Dumping database table `wp_revslider_layer_animations_bkp`. Max rows per select: 1000. Starting at row `0`."}
{"event":"startTableDump","time":1611148691,"u":"89","run":"0.26","mem":"18.28","data":"wp_revslider_layer_animations_bkp"}
{"event":"details","time":1611148691,"u":"89","run":"0.26","mem":"18.28","data":"SQL dump file `\/var\/www\/html\/wp-content\/uploads\/backupbuddy_temp\/4vnkfe4xjo\/wp_revslider_layer_animations_bkp.sql`."}
{"event":"details","time":1611148691,"u":"89","run":"0.26","mem":"18.28","data":"Database max execution time chunking disabled based on -1 passed."}
{"event":"sqlFile","time":1611148691,"u":"89","run":"0.26","mem":"18.28","data":"wp_revslider_layer_animations_bkp.sql"}
{"event":"details","time":1611148691,"u":"89","run":"0.26","mem":"18.27","data":"Got `0` rows from `wp_revslider_layer_animations_bkp` of `1000` max."}
{"event":"details","time":1611148691,"u":"89","run":"0.26","mem":"18.27","data":"Dumped `0` rows total from `wp_revslider_layer_animations_bkp`. No rows remain."}
{"event":"details","time":1611148691,"u":"89","run":"0.26","mem":"18.27","data":"Pinging mysqli."}
{"event":"details","time":1611148691,"u":"89","run":"0.26","mem":"18.27","data":"Database Server connection status verified."}
{"event":"details","time":1611148691,"u":"89","run":"0.27","mem":"18.27","data":"Finished dumping database table `wp_revslider_layer_animations_bkp`."}
{"event":"finishTableDump","time":1611148691,"u":"89","run":"0.27","mem":"18.27","data":"wp_revslider_layer_animations_bkp"}
{"event":"details","time":1611148691,"u":"89","run":"0.27","mem":"18.27","data":"Database SQL dump file (wp_revslider_layer_animations_bkp.sql) size: 483 Bytes"}
{"event":"sqlSize","time":1611148691,"u":"89","run":"0.27","mem":"18.27","data":"483"}
{"event":"details","time":1611148691,"u":"89","run":"0.27","mem":"18.27","data":"About to flush..."}
{"event":"details","time":1611148691,"u":"89","run":"0.27","mem":"18.27","data":"Dumping database table `wp_revslider_css`. Max rows per select: 1000. Starting at row `0`."}
{"event":"startTableDump","time":1611148691,"u":"89","run":"0.27","mem":"18.27","data":"wp_revslider_css"}
{"event":"details","time":1611148691,"u":"89","run":"0.27","mem":"18.27","data":"SQL dump file `\/var\/www\/html\/wp-content\/uploads\/backupbuddy_temp\/4vnkfe4xjo\/wp_revslider_css.sql`."}
{"event":"details","time":1611148691,"u":"89","run":"0.27","mem":"18.27","data":"Database max execution time chunking disabled based on -1 passed."}
{"event":"sqlFile","time":1611148691,"u":"89","run":"0.27","mem":"18.27","data":"wp_revslider_css.sql"}
{"event":"details","time":1611148691,"u":"89","run":"0.27","mem":"18.56","data":"Got `109` rows from `wp_revslider_css` of `1000` max."}
{"event":"details","time":1611148691,"u":"90","run":"0.27","mem":"18.57","data":"Dumped `109` rows total from `wp_revslider_css`. No rows remain."}
{"event":"details","time":1611148691,"u":"90","run":"0.27","mem":"18.57","data":"Pinging mysqli."}
{"event":"details","time":1611148691,"u":"90","run":"0.27","mem":"18.57","data":"Database Server connection status verified."}
{"event":"details","time":1611148691,"u":"90","run":"0.27","mem":"18.57","data":"Finished dumping database table `wp_revslider_css`."}
{"event":"finishTableDump","time":1611148691,"u":"90","run":"0.27","mem":"18.57","data":"wp_revslider_css"}
{"event":"details","time":1611148691,"u":"90","run":"0.27","mem":"18.57","data":"Database SQL dump file (wp_revslider_css.sql) size: 110 KB"}
{"event":"sqlSize","time":1611148691,"u":"90","run":"0.27","mem":"18.57","data":"112837"}
{"event":"details","time":1611148691,"u":"90","run":"0.27","mem":"18.57","data":"About to flush..."}
{"event":"details","time":1611148691,"u":"90","run":"0.27","mem":"18.57","data":"Dumping database table `wp_term_relationships`. Max rows per select: 1000. Starting at row `0`."}
{"event":"startTableDump","time":1611148691,"u":"90","run":"0.27","mem":"18.57","data":"wp_term_relationships"}
{"event":"details","time":1611148691,"u":"90","run":"0.27","mem":"18.57","data":"SQL dump file `\/var\/www\/html\/wp-content\/uploads\/backupbuddy_temp\/4vnkfe4xjo\/wp_term_relationships.sql`."}
{"event":"details","time":1611148691,"u":"90","run":"0.27","mem":"18.57","data":"Database max execution time chunking disabled based on -1 passed."}
{"event":"sqlFile","time":1611148691,"u":"90","run":"0.27","mem":"18.57","data":"wp_term_relationships.sql"}
{"event":"details","time":1611148691,"u":"90","run":"0.27","mem":"18.28","data":"Got `13` rows from `wp_term_relationships` of `1000` max."}
{"event":"details","time":1611148691,"u":"90","run":"0.27","mem":"18.28","data":"Dumped `13` rows total from `wp_term_relationships`. No rows remain."}
{"event":"details","time":1611148691,"u":"90","run":"0.27","mem":"18.28","data":"Pinging mysqli."}
{"event":"details","time":1611148691,"u":"90","run":"0.27","mem":"18.28","data":"Database Server connection status verified."}
{"event":"details","time":1611148691,"u":"90","run":"0.27","mem":"18.28","data":"Finished dumping database table `wp_term_relationships`."}
{"event":"finishTableDump","time":1611148691,"u":"90","run":"0.27","mem":"18.28","data":"wp_term_relationships"}
{"event":"details","time":1611148691,"u":"90","run":"0.27","mem":"18.28","data":"Database SQL dump file (wp_term_relationships.sql) size: 1 KB"}
{"event":"sqlSize","time":1611148691,"u":"90","run":"0.27","mem":"18.28","data":"1363"}
{"event":"details","time":1611148691,"u":"90","run":"0.27","mem":"18.28","data":"About to flush..."}
{"event":"details","time":1611148691,"u":"90","run":"0.27","mem":"18.28","data":"Dumping database table `wp_revslider_slides`. Max rows per select: 1000. Starting at row `0`."}
{"event":"startTableDump","time":1611148691,"u":"90","run":"0.27","mem":"18.28","data":"wp_revslider_slides"}
{"event":"details","time":1611148691,"u":"90","run":"0.27","mem":"18.28","data":"SQL dump file `\/var\/www\/html\/wp-content\/uploads\/backupbuddy_temp\/4vnkfe4xjo\/wp_revslider_slides.sql`."}
{"event":"details","time":1611148691,"u":"90","run":"0.27","mem":"18.28","data":"Database max execution time chunking disabled based on -1 passed."}
{"event":"sqlFile","time":1611148691,"u":"90","run":"0.27","mem":"18.28","data":"wp_revslider_slides.sql"}
{"event":"details","time":1611148691,"u":"90","run":"0.27","mem":"18.27","data":"Got `1` rows from `wp_revslider_slides` of `1000` max."}
{"event":"details","time":1611148691,"u":"90","run":"0.27","mem":"18.28","data":"Dumped `1` rows total from `wp_revslider_slides`. No rows remain."}
{"event":"details","time":1611148691,"u":"90","run":"0.27","mem":"18.28","data":"Pinging mysqli."}
{"event":"details","time":1611148691,"u":"90","run":"0.27","mem":"18.28","data":"Database Server connection status verified."}
{"event":"details","time":1611148691,"u":"90","run":"0.27","mem":"18.28","data":"Finished dumping database table `wp_revslider_slides`."}
{"event":"finishTableDump","time":1611148691,"u":"90","run":"0.27","mem":"18.28","data":"wp_revslider_slides"}
{"event":"details","time":1611148691,"u":"90","run":"0.27","mem":"18.28","data":"Database SQL dump file (wp_revslider_slides.sql) size: 4 KB"}
{"event":"sqlSize","time":1611148691,"u":"90","run":"0.27","mem":"18.28","data":"3948"}
{"event":"details","time":1611148691,"u":"90","run":"0.27","mem":"18.28","data":"About to flush..."}
{"event":"details","time":1611148691,"u":"90","run":"0.27","mem":"18.28","data":"Dumping database table `wp_comments`. Max rows per select: 1000. Starting at row `0`."}
{"event":"startTableDump","time":1611148691,"u":"90","run":"0.27","mem":"18.28","data":"wp_comments"}
{"event":"details","time":1611148691,"u":"90","run":"0.27","mem":"18.28","data":"SQL dump file `\/var\/www\/html\/wp-content\/uploads\/backupbuddy_temp\/4vnkfe4xjo\/wp_comments.sql`."}
{"event":"details","time":1611148691,"u":"90","run":"0.27","mem":"18.28","data":"Database max execution time chunking disabled based on -1 passed."}
{"event":"sqlFile","time":1611148691,"u":"90","run":"0.27","mem":"18.28","data":"wp_comments.sql"}
{"event":"details","time":1611148691,"u":"90","run":"0.27","mem":"18.27","data":"Got `1` rows from `wp_comments` of `1000` max."}
{"event":"details","time":1611148691,"u":"90","run":"0.27","mem":"18.29","data":"Dumped `1` rows total from `wp_comments`. No rows remain."}
{"event":"details","time":1611148691,"u":"90","run":"0.27","mem":"18.29","data":"Pinging mysqli."}
{"event":"details","time":1611148691,"u":"90","run":"0.27","mem":"18.29","data":"Database Server connection status verified."}
{"event":"details","time":1611148691,"u":"90","run":"0.27","mem":"18.29","data":"Finished dumping database table `wp_comments`."}
{"event":"finishTableDump","time":1611148691,"u":"90","run":"0.27","mem":"18.29","data":"wp_comments"}
{"event":"details","time":1611148691,"u":"90","run":"0.27","mem":"18.29","data":"Database SQL dump file (wp_comments.sql) size: 2 KB"}
{"event":"sqlSize","time":1611148691,"u":"90","run":"0.27","mem":"18.29","data":"2069"}
{"event":"details","time":1611148691,"u":"90","run":"0.27","mem":"18.29","data":"About to flush..."}
{"event":"details","time":1611148691,"u":"90","run":"0.27","mem":"18.29","data":"Dumping database table `wp_revslider_static_slides`. Max rows per select: 1000. Starting at row `0`."}
{"event":"startTableDump","time":1611148691,"u":"90","run":"0.27","mem":"18.29","data":"wp_revslider_static_slides"}
{"event":"details","time":1611148691,"u":"90","run":"0.27","mem":"18.29","data":"SQL dump file `\/var\/www\/html\/wp-content\/uploads\/backupbuddy_temp\/4vnkfe4xjo\/wp_revslider_static_slides.sql`."}
{"event":"details","time":1611148691,"u":"90","run":"0.27","mem":"18.29","data":"Database max execution time chunking disabled based on -1 passed."}
{"event":"sqlFile","time":1611148691,"u":"90","run":"0.27","mem":"18.29","data":"wp_revslider_static_slides.sql"}
{"event":"details","time":1611148691,"u":"90","run":"0.28","mem":"18.27","data":"Got `1` rows from `wp_revslider_static_slides` of `1000` max."}
{"event":"details","time":1611148691,"u":"90","run":"0.28","mem":"18.27","data":"Dumped `1` rows total from `wp_revslider_static_slides`. No rows remain."}
{"event":"details","time":1611148691,"u":"90","run":"0.28","mem":"18.27","data":"Pinging mysqli."}
{"event":"details","time":1611148691,"u":"90","run":"0.28","mem":"18.27","data":"Database Server connection status verified."}
{"event":"details","time":1611148691,"u":"90","run":"0.28","mem":"18.27","data":"Finished dumping database table `wp_revslider_static_slides`."}
{"event":"finishTableDump","time":1611148691,"u":"90","run":"0.28","mem":"18.27","data":"wp_revslider_static_slides"}
{"event":"details","time":1611148691,"u":"90","run":"0.28","mem":"18.27","data":"Database SQL dump file (wp_revslider_static_slides.sql) size: 601 Bytes"}
{"event":"sqlSize","time":1611148691,"u":"90","run":"0.28","mem":"18.27","data":"601"}
{"event":"details","time":1611148691,"u":"90","run":"0.28","mem":"18.27","data":"About to flush..."}
{"event":"details","time":1611148691,"u":"90","run":"0.28","mem":"18.27","data":"Dumping database table `wp_revslider_sliders_bkp`. Max rows per select: 1000. Starting at row `0`."}
{"event":"startTableDump","time":1611148691,"u":"90","run":"0.28","mem":"18.27","data":"wp_revslider_sliders_bkp"}
{"event":"details","time":1611148691,"u":"90","run":"0.28","mem":"18.27","data":"SQL dump file `\/var\/www\/html\/wp-content\/uploads\/backupbuddy_temp\/4vnkfe4xjo\/wp_revslider_sliders_bkp.sql`."}
{"event":"details","time":1611148691,"u":"90","run":"0.28","mem":"18.27","data":"Database max execution time chunking disabled based on -1 passed."}
{"event":"sqlFile","time":1611148691,"u":"90","run":"0.28","mem":"18.27","data":"wp_revslider_sliders_bkp.sql"}
{"event":"details","time":1611148691,"u":"90","run":"0.28","mem":"18.27","data":"Got `0` rows from `wp_revslider_sliders_bkp` of `1000` max."}
{"event":"details","time":1611148691,"u":"90","run":"0.28","mem":"18.28","data":"Dumped `0` rows total from `wp_revslider_sliders_bkp`. No rows remain."}
{"event":"details","time":1611148691,"u":"90","run":"0.28","mem":"18.28","data":"Pinging mysqli."}
{"event":"details","time":1611148691,"u":"91","run":"0.28","mem":"18.28","data":"Database Server connection status verified."}
{"event":"details","time":1611148691,"u":"91","run":"0.28","mem":"18.27","data":"Finished dumping database table `wp_revslider_sliders_bkp`."}
{"event":"finishTableDump","time":1611148691,"u":"91","run":"0.28","mem":"18.27","data":"wp_revslider_sliders_bkp"}
{"event":"details","time":1611148691,"u":"91","run":"0.28","mem":"18.27","data":"Database SQL dump file (wp_revslider_sliders_bkp.sql) size: 537 Bytes"}
{"event":"sqlSize","time":1611148691,"u":"91","run":"0.28","mem":"18.27","data":"537"}
{"event":"details","time":1611148691,"u":"91","run":"0.28","mem":"18.27","data":"About to flush..."}
{"event":"details","time":1611148691,"u":"91","run":"0.28","mem":"18.27","data":"Dumping database table `wp_links`. Max rows per select: 1000. Starting at row `0`."}
{"event":"startTableDump","time":1611148691,"u":"91","run":"0.28","mem":"18.27","data":"wp_links"}
{"event":"details","time":1611148691,"u":"91","run":"0.28","mem":"18.27","data":"SQL dump file `\/var\/www\/html\/wp-content\/uploads\/backupbuddy_temp\/4vnkfe4xjo\/wp_links.sql`."}
{"event":"details","time":1611148691,"u":"91","run":"0.28","mem":"18.27","data":"Database max execution time chunking disabled based on -1 passed."}
{"event":"sqlFile","time":1611148691,"u":"91","run":"0.28","mem":"18.27","data":"wp_links.sql"}
{"event":"details","time":1611148691,"u":"91","run":"0.28","mem":"18.27","data":"Got `0` rows from `wp_links` of `1000` max."}
{"event":"details","time":1611148691,"u":"91","run":"0.28","mem":"18.29","data":"Dumped `0` rows total from `wp_links`. No rows remain."}
{"event":"details","time":1611148691,"u":"91","run":"0.28","mem":"18.29","data":"Pinging mysqli."}
{"event":"details","time":1611148691,"u":"91","run":"0.28","mem":"18.29","data":"Database Server connection status verified."}
{"event":"details","time":1611148691,"u":"91","run":"0.28","mem":"18.28","data":"Finished dumping database table `wp_links`."}
{"event":"finishTableDump","time":1611148691,"u":"91","run":"0.28","mem":"18.28","data":"wp_links"}
{"event":"details","time":1611148691,"u":"91","run":"0.28","mem":"18.28","data":"Database SQL dump file (wp_links.sql) size: 1 KB"}
{"event":"sqlSize","time":1611148691,"u":"91","run":"0.28","mem":"18.28","data":"1236"}
{"event":"details","time":1611148691,"u":"91","run":"0.28","mem":"18.28","data":"About to flush..."}
{"event":"details","time":1611148691,"u":"91","run":"0.28","mem":"18.28","data":"Finished PHP based SQL dump method. Ran for 0.07 sec."}
{"event":"details","time":1611148691,"u":"91","run":"0.28","mem":"18.28","data":"mysqlbuddy: Dump method `php` completed successfully."}
{"event":"milestone","time":1611148691,"u":"91","run":"0.28","mem":"18.28","data":"finish_database"}
{"event":"message","time":1611148691,"u":"91","run":"0.28","mem":"18.28","data":"Database dump procedure succeeded."}
{"event":"details","time":1611148691,"u":"91","run":"0.28","mem":"18.30","data":"Fileoptions `4vnkfe4xjo.txt` saved. 8416 bytes written."}
{"event":"details","time":1611148691,"u":"91","run":"0.28","mem":"18.28","data":"Finished function `backup_create_database_dump`. Peak memory usage: 24.682 MB with BackupBuddy v8.7.2.0"}
{"event":"finishFunction","time":1611148691,"u":"91","run":"0.28","mem":"18.28","data":"{\"function\":\"backup_create_database_dump\"}"}
{"event":"details","time":1611148691,"u":"91","run":"0.28","mem":"18.28","data":"-----"}
{"event":"details","time":1611148691,"u":"91","run":"0.28","mem":"18.28","data":"Classic mode; skipping cron & triggering next step."}
{"event":"details","time":1611148691,"u":"91","run":"0.28","mem":"18.30","data":"Fileoptions `4vnkfe4xjo.txt` saved. 8436 bytes written."}
{"event":"details","time":1611148691,"u":"91","run":"0.28","mem":"18.28","data":"Found next step to run: `backup_create_database_dump`."}
{"event":"details","time":1611148691,"u":"91","run":"0.28","mem":"18.28","data":"Peak memory usage: 24.682 MB"}
{"event":"details","time":1611148691,"u":"91","run":"0.28","mem":"18.28","data":"-----"}
{"event":"details","time":1611148691,"u":"91","run":"0.28","mem":"18.28","data":"Starting step function `backup_create_database_dump`. Attempt #1."}
{"event":"startFunction","time":1611148691,"u":"91","run":"0.28","mem":"18.28","data":"{\"function\":\"backup_create_database_dump\",\"title\":\"Backing up database\"}"}
{"event":"milestone","time":1611148691,"u":"91","run":"0.28","mem":"18.28","data":"start_database"}
{"event":"message","time":1611148691,"u":"91","run":"0.28","mem":"18.28","data":"Starting database backup process."}
{"event":"details","time":1611148691,"u":"91","run":"0.28","mem":"18.28","data":"PHP-based mysqldump (if applicable) max rows per select set to 1000."}
{"event":"details","time":1611148691,"u":"91","run":"0.28","mem":"18.28","data":"Database host for dumping: `mysql`"}
{"event":"details","time":1611148691,"u":"91","run":"0.28","mem":"18.28","data":"Loading mysqlbuddy library."}
{"event":"details","time":1611148691,"u":"91","run":"0.28","mem":"18.28","data":"Mysql server default directories: `\/usr\/bin\/,\/usr\/bin\/mysql\/,\/usr\/local\/bin\/`"}
{"event":"details","time":1611148691,"u":"91","run":"0.28","mem":"18.28","data":"mysqlbuddy: Force method of `1` passed."}
{"event":"message","time":1611148691,"u":"91","run":"0.28","mem":"18.28","data":"mysqlbuddy: Settings overriding automatic detection of available database dump methods. Using forced override methods: `php`."}
{"event":"message","time":1611148691,"u":"91","run":"0.28","mem":"18.28","data":"mysqlbuddy: Detected database dump methods: `php`."}
{"event":"details","time":1611148691,"u":"91","run":"0.28","mem":"18.28","data":"Max execution time chunking disabled by passing -1 to constructor. No chunking will be used for the database dump."}
{"event":"details","time":1611148691,"u":"91","run":"0.28","mem":"18.28","data":"This server's mariadb version: `10.5.8`."}
{"event":"milestone","time":1611148691,"u":"91","run":"0.28","mem":"18.28","data":"start_database"}
{"event":"message","time":1611148691,"u":"91","run":"0.28","mem":"18.28","data":"Starting database dump procedure."}
{"event":"details","time":1611148691,"u":"91","run":"0.28","mem":"18.28","data":"mysqlbuddy: Output directory: `\/var\/www\/html\/wp-content\/uploads\/backupbuddy_temp\/4vnkfe4xjo\/`."}
{"event":"details","time":1611148691,"u":"91","run":"0.28","mem":"18.28","data":"Dumping single table `wp_posts`."}
{"event":"details","time":1611148691,"u":"91","run":"0.28","mem":"18.28","data":"Preparing to dump using available method(s) by priority. Methods: `php`"}
{"event":"details","time":1611148691,"u":"91","run":"0.28","mem":"18.28","data":"mysqlbuddy: Attempting dump method `php`."}
{"event":"details","time":1611148691,"u":"91","run":"0.28","mem":"18.28","data":"Loading DB kicker for use leter in case database goes away."}
{"event":"details","time":1611148691,"u":"91","run":"0.28","mem":"18.28","data":"Database kicker loaded. Database object class: `wpdb` with database of type `mysqli`."}
{"event":"details","time":1611148691,"u":"91","run":"0.28","mem":"18.28","data":"Dumping database table `wp_posts`. Max rows per select: 1000. Starting at row `0`."}
{"event":"startTableDump","time":1611148691,"u":"91","run":"0.28","mem":"18.28","data":"wp_posts"}
{"event":"details","time":1611148691,"u":"91","run":"0.28","mem":"18.28","data":"SQL dump file `\/var\/www\/html\/wp-content\/uploads\/backupbuddy_temp\/4vnkfe4xjo\/wp_posts.sql`."}
{"event":"details","time":1611148691,"u":"91","run":"0.28","mem":"18.28","data":"Database max execution time chunking disabled based on -1 passed."}
{"event":"sqlFile","time":1611148691,"u":"91","run":"0.28","mem":"18.28","data":"wp_posts.sql"}
{"event":"details","time":1611148691,"u":"91","run":"0.29","mem":"20.72","data":"Got `180` rows from `wp_posts` of `1000` max."}
{"event":"details","time":1611148691,"u":"92","run":"0.30","mem":"20.75","data":"Dumped `180` rows total from `wp_posts`. No rows remain."}
{"event":"details","time":1611148691,"u":"92","run":"0.30","mem":"20.75","data":"Pinging mysqli."}
{"event":"details","time":1611148691,"u":"92","run":"0.30","mem":"20.75","data":"Database Server connection status verified."}
{"event":"details","time":1611148691,"u":"92","run":"0.30","mem":"20.75","data":"Finished dumping database table `wp_posts`."}
{"event":"finishTableDump","time":1611148691,"u":"92","run":"0.30","mem":"20.75","data":"wp_posts"}
{"event":"details","time":1611148691,"u":"92","run":"0.30","mem":"20.75","data":"Database SQL dump file (wp_posts.sql) size: 730 KB"}
{"event":"sqlSize","time":1611148691,"u":"92","run":"0.30","mem":"20.75","data":"747675"}
{"event":"details","time":1611148691,"u":"92","run":"0.30","mem":"20.75","data":"About to flush..."}
{"event":"details","time":1611148691,"u":"92","run":"0.30","mem":"20.75","data":"Finished PHP based SQL dump method. Ran for 0.014 sec."}
{"event":"details","time":1611148691,"u":"92","run":"0.30","mem":"20.50","data":"mysqlbuddy: Dump method `php` completed successfully."}
{"event":"milestone","time":1611148691,"u":"92","run":"0.30","mem":"20.50","data":"finish_database"}
{"event":"message","time":1611148691,"u":"92","run":"0.30","mem":"20.50","data":"Database dump procedure succeeded."}
{"event":"details","time":1611148691,"u":"93","run":"0.30","mem":"20.52","data":"Fileoptions `4vnkfe4xjo.txt` saved. 8456 bytes written."}
{"event":"details","time":1611148691,"u":"93","run":"0.30","mem":"20.50","data":"Finished function `backup_create_database_dump`. Peak memory usage: 24.682 MB with BackupBuddy v8.7.2.0"}
{"event":"finishFunction","time":1611148691,"u":"93","run":"0.30","mem":"20.50","data":"{\"function\":\"backup_create_database_dump\"}"}
{"event":"details","time":1611148691,"u":"93","run":"0.30","mem":"20.50","data":"-----"}
{"event":"details","time":1611148691,"u":"93","run":"0.30","mem":"20.50","data":"Classic mode; skipping cron & triggering next step."}
{"event":"details","time":1611148691,"u":"93","run":"0.30","mem":"20.52","data":"Fileoptions `4vnkfe4xjo.txt` saved. 8480 bytes written."}
{"event":"details","time":1611148691,"u":"93","run":"0.30","mem":"20.51","data":"Found next step to run: `backup_create_database_dump`."}
{"event":"details","time":1611148691,"u":"93","run":"0.30","mem":"20.51","data":"Peak memory usage: 24.682 MB"}
{"event":"details","time":1611148691,"u":"93","run":"0.30","mem":"20.51","data":"-----"}
{"event":"details","time":1611148691,"u":"93","run":"0.30","mem":"20.51","data":"Starting step function `backup_create_database_dump`. Attempt #1."}
{"event":"startFunction","time":1611148691,"u":"93","run":"0.30","mem":"20.51","data":"{\"function\":\"backup_create_database_dump\",\"title\":\"Backing up database\"}"}
{"event":"milestone","time":1611148691,"u":"93","run":"0.30","mem":"20.51","data":"start_database"}
{"event":"message","time":1611148691,"u":"93","run":"0.30","mem":"20.51","data":"Starting database backup process."}
{"event":"details","time":1611148691,"u":"93","run":"0.30","mem":"20.51","data":"PHP-based mysqldump (if applicable) max rows per select set to 1000."}
{"event":"details","time":1611148691,"u":"93","run":"0.30","mem":"20.51","data":"Database host for dumping: `mysql`"}
{"event":"details","time":1611148691,"u":"93","run":"0.30","mem":"20.51","data":"Loading mysqlbuddy library."}
{"event":"details","time":1611148691,"u":"93","run":"0.30","mem":"20.51","data":"Mysql server default directories: `\/usr\/bin\/,\/usr\/bin\/mysql\/,\/usr\/local\/bin\/`"}
{"event":"details","time":1611148691,"u":"93","run":"0.30","mem":"20.51","data":"mysqlbuddy: Force method of `1` passed."}
{"event":"message","time":1611148691,"u":"93","run":"0.30","mem":"20.51","data":"mysqlbuddy: Settings overriding automatic detection of available database dump methods. Using forced override methods: `php`."}
{"event":"message","time":1611148691,"u":"93","run":"0.30","mem":"20.51","data":"mysqlbuddy: Detected database dump methods: `php`."}
{"event":"details","time":1611148691,"u":"93","run":"0.30","mem":"20.51","data":"Max execution time chunking disabled by passing -1 to constructor. No chunking will be used for the database dump."}
{"event":"details","time":1611148691,"u":"93","run":"0.30","mem":"20.51","data":"This server's mariadb version: `10.5.8`."}
{"event":"milestone","time":1611148691,"u":"93","run":"0.30","mem":"20.50","data":"start_database"}
{"event":"message","time":1611148691,"u":"93","run":"0.30","mem":"20.50","data":"Starting database dump procedure."}
{"event":"details","time":1611148691,"u":"93","run":"0.30","mem":"20.50","data":"mysqlbuddy: Output directory: `\/var\/www\/html\/wp-content\/uploads\/backupbuddy_temp\/4vnkfe4xjo\/`."}
{"event":"details","time":1611148691,"u":"93","run":"0.30","mem":"20.50","data":"Dumping single table `wp_postmeta`."}
{"event":"details","time":1611148691,"u":"93","run":"0.30","mem":"20.50","data":"Preparing to dump using available method(s) by priority. Methods: `php`"}
{"event":"details","time":1611148691,"u":"93","run":"0.30","mem":"20.50","data":"mysqlbuddy: Attempting dump method `php`."}
{"event":"details","time":1611148691,"u":"93","run":"0.30","mem":"20.51","data":"Loading DB kicker for use leter in case database goes away."}
{"event":"details","time":1611148691,"u":"93","run":"0.30","mem":"20.51","data":"Database kicker loaded. Database object class: `wpdb` with database of type `mysqli`."}
{"event":"details","time":1611148691,"u":"93","run":"0.30","mem":"20.51","data":"Dumping database table `wp_postmeta`. Max rows per select: 1000. Starting at row `0`."}
{"event":"startTableDump","time":1611148691,"u":"93","run":"0.30","mem":"20.51","data":"wp_postmeta"}
{"event":"details","time":1611148691,"u":"93","run":"0.30","mem":"20.51","data":"SQL dump file `\/var\/www\/html\/wp-content\/uploads\/backupbuddy_temp\/4vnkfe4xjo\/wp_postmeta.sql`."}
{"event":"details","time":1611148691,"u":"93","run":"0.30","mem":"20.51","data":"Database max execution time chunking disabled based on -1 passed."}
{"event":"sqlFile","time":1611148691,"u":"93","run":"0.30","mem":"20.51","data":"wp_postmeta.sql"}
{"event":"details","time":1611148691,"u":"93","run":"0.30","mem":"18.76","data":"Got `309` rows from `wp_postmeta` of `1000` max."}
{"event":"details","time":1611148691,"u":"93","run":"0.30","mem":"18.77","data":"Dumped `309` rows total from `wp_postmeta`. No rows remain."}
{"event":"details","time":1611148691,"u":"93","run":"0.30","mem":"18.77","data":"Pinging mysqli."}
{"event":"details","time":1611148691,"u":"93","run":"0.30","mem":"18.77","data":"Database Server connection status verified."}
{"event":"details","time":1611148691,"u":"93","run":"0.30","mem":"18.77","data":"Finished dumping database table `wp_postmeta`."}
{"event":"finishTableDump","time":1611148691,"u":"93","run":"0.30","mem":"18.77","data":"wp_postmeta"}
{"event":"details","time":1611148691,"u":"93","run":"0.30","mem":"18.77","data":"Database SQL dump file (wp_postmeta.sql) size: 99 KB"}
{"event":"sqlSize","time":1611148691,"u":"93","run":"0.30","mem":"18.77","data":"100976"}
{"event":"details","time":1611148691,"u":"93","run":"0.30","mem":"18.77","data":"About to flush..."}
{"event":"details","time":1611148691,"u":"93","run":"0.30","mem":"18.77","data":"Finished PHP based SQL dump method. Ran for 0.005 sec."}
{"event":"details","time":1611148691,"u":"93","run":"0.30","mem":"18.63","data":"mysqlbuddy: Dump method `php` completed successfully."}
{"event":"milestone","time":1611148691,"u":"93","run":"0.30","mem":"18.63","data":"finish_database"}
{"event":"message","time":1611148691,"u":"93","run":"0.31","mem":"18.63","data":"Database dump procedure succeeded."}
{"event":"details","time":1611148691,"u":"93","run":"0.31","mem":"18.65","data":"Fileoptions `4vnkfe4xjo.txt` saved. 8500 bytes written."}
{"event":"details","time":1611148691,"u":"93","run":"0.31","mem":"18.63","data":"Finished function `backup_create_database_dump`. Peak memory usage: 24.682 MB with BackupBuddy v8.7.2.0"}
{"event":"finishFunction","time":1611148691,"u":"93","run":"0.31","mem":"18.63","data":"{\"function\":\"backup_create_database_dump\"}"}
{"event":"details","time":1611148691,"u":"93","run":"0.31","mem":"18.63","data":"-----"}
{"event":"details","time":1611148691,"u":"93","run":"0.31","mem":"18.63","data":"Classic mode; skipping cron & triggering next step."}
{"event":"details","time":1611148691,"u":"93","run":"0.31","mem":"18.65","data":"Fileoptions `4vnkfe4xjo.txt` saved. 8524 bytes written."}
{"event":"details","time":1611148691,"u":"93","run":"0.31","mem":"18.63","data":"Found next step to run: `backup_zip_files`."}
{"event":"details","time":1611148691,"u":"93","run":"0.31","mem":"18.63","data":"Peak memory usage: 24.682 MB"}
{"event":"details","time":1611148691,"u":"93","run":"0.31","mem":"18.63","data":"-----"}
{"event":"details","time":1611148691,"u":"93","run":"0.31","mem":"18.63","data":"Starting step function `backup_zip_files`. Attempt #1."}
{"event":"startFunction","time":1611148691,"u":"93","run":"0.31","mem":"18.63","data":"{\"function\":\"backup_zip_files\",\"title\":\"Zipping up files\"}"}
{"event":"milestone","time":1611148691,"u":"93","run":"0.31","mem":"18.63","data":"start_files"}
{"event":"details","time":1611148691,"u":"93","run":"0.31","mem":"18.63","data":"Backup root: `\/var\/www\/html\/wp-content\/uploads\/backupbuddy_temp\/4vnkfe4xjo\/`."}
{"event":"details","time":1611148691,"u":"93","run":"0.31","mem":"18.63","data":"Saving meta data to zip comment."}
{"event":"details","time":1611148691,"u":"93","run":"0.31","mem":"18.27","data":"Zip process reported: Initializing zip archive file: \/var\/www\/html\/wp-content\/uploads\/backupbuddy_backups\/temp_zip_4vnkfe4xjo\/backup-hellosaks_com-2021_01_20-01_18pm-db-4vnkfe4xjo.zip"}
{"event":"details","time":1611148691,"u":"94","run":"0.31","mem":"18.27","data":"Zip process reported: Initialized zip archive file"}
{"event":"details","time":1611148691,"u":"94","run":"0.31","mem":"18.27","data":"PCLZip class not found. Attempting to load from `\/var\/www\/html\/wp-admin\/includes\/class-pclzip.php`."}
{"event":"details","time":1611148691,"u":"94","run":"0.31","mem":"18.27","data":"PCLZIP_TEMPORARY_DIR defined: `\/var\/www\/html\/wp-content\/uploads\/backupbuddy_backups\/temp_zip_4vnkfe4xjo\/`"}
{"event":"details","time":1611148691,"u":"94","run":"0.31","mem":"18.27","data":"Verifying initialized zip archive file exists."}
{"event":"details","time":1611148691,"u":"94","run":"0.31","mem":"18.27","data":"File found (ziparchive): .itbub"}
{"event":"details","time":1611148691,"u":"94","run":"0.31","mem":"18.27","data":"Verified initialized zip archive file exists."}
{"event":"message","time":1611148691,"u":"94","run":"0.31","mem":"18.27","data":"Running standard ZIP system based on settings."}
{"event":"details","time":1611148691,"u":"94","run":"0.31","mem":"18.27","data":"Running under 64-bit PHP"}
{"event":"details","time":1611148691,"u":"94","run":"0.31","mem":"18.27","data":"Server API: fpm-fcgi"}
{"event":"details","time":1611148691,"u":"94","run":"0.31","mem":"18.27","data":"Using Best Available zip method based on settings."}
{"event":"details","time":1611148691,"u":"94","run":"0.31","mem":"18.27","data":"Creating ZIP file `\/var\/www\/html\/wp-content\/uploads\/backupbuddy_backups\/backup-hellosaks_com-2021_01_20-01_18pm-db-4vnkfe4xjo.zip`. Adding directory `\/var\/www\/html\/wp-content\/uploads\/backupbuddy_temp\/4vnkfe4xjo\/`. Excludes: \/importbuddy\/,\/importbuddy.php,\/.itbub,\/.sucuriquarantine\/,\/wp-content\/uploads\/sucuri\/,\/wp-content\/envato-backups\/,\/wp-content\/backup-db\/,\/wp-snapshots\/,\/wp-content\/ai1wm-backups\/,\/wp-content\/updraft\/,\/wp-content\/mysql.sql,\/wp-content\/uploads\/snapshots\/,\/wp-content\/backups\/,\/wp-content\/cache\/supercache\/,\/wp-content\/wfcache\/,\/wp-content\/wflogs\/,\/wp-content\/cache\/,\/wp-content\/plugins\/wordfence\/tmp\/,\/error_log,\/wp-admin\/error_log,\/logs\/,\/_wpeprivate\/,\/wp-content\/plugins\/wpengine-snapshot\/snapshots\/,\/ics-importer-cache\/,\/gt-cache\/,\/wp-config-sample.php,\/wp-content\/managewp\/,\/wp-content\/upgrade\/,\/wp-content\/uploads\/backupbuddy_backups\/,\/wp-content\/uploads\/pb_backupbuddy\/"}
{"event":"details","time":1611148691,"u":"94","run":"0.31","mem":"18.35","data":"Trying pclzip method for ZIP."}
{"event":"details","time":1611148691,"u":"94","run":"0.31","mem":"18.35","data":"Zip process reported: Temporary working directory available: `\/var\/www\/html\/wp-content\/uploads\/backupbuddy_backups\/temp_zip_4vnkfe4xjo\/`"}
{"event":"message","time":1611148691,"u":"94","run":"0.31","mem":"18.35","data":"Using Compatibility Mode."}
{"event":"message","time":1611148691,"u":"94","run":"0.31","mem":"18.35","data":"If your backup times out in Compatibility Mode try disabling zip compression in Settings."}
{"event":"details","time":1611148691,"u":"94","run":"0.31","mem":"18.35","data":"Calculating directories\/files to exclude from backup (relative to site root)."}
{"event":"details","time":1611148691,"u":"94","run":"0.31","mem":"18.35","data":"Excluding: \/importbuddy\/"}
{"event":"details","time":1611148691,"u":"94","run":"0.31","mem":"18.35","data":"Excluding: \/importbuddy.php"}
{"event":"details","time":1611148691,"u":"94","run":"0.31","mem":"18.35","data":"Excluding: \/.itbub"}
{"event":"details","time":1611148691,"u":"94","run":"0.31","mem":"18.35","data":"Excluding: \/.sucuriquarantine\/"}
{"event":"details","time":1611148691,"u":"94","run":"0.31","mem":"18.35","data":"Excluding: \/wp-content\/uploads\/sucuri\/"}
{"event":"details","time":1611148691,"u":"94","run":"0.31","mem":"18.35","data":"Excluding: \/wp-content\/envato-backups\/"}
{"event":"details","time":1611148691,"u":"94","run":"0.31","mem":"18.35","data":"Excluding: \/wp-content\/backup-db\/"}
{"event":"details","time":1611148691,"u":"94","run":"0.31","mem":"18.35","data":"Excluding: \/wp-snapshots\/"}
{"event":"details","time":1611148691,"u":"94","run":"0.31","mem":"18.35","data":"Excluding: \/wp-content\/ai1wm-backups\/"}
{"event":"details","time":1611148691,"u":"94","run":"0.31","mem":"18.35","data":"Excluding: \/wp-content\/updraft\/"}
{"event":"details","time":1611148691,"u":"94","run":"0.32","mem":"18.35","data":"Excluding: \/wp-content\/mysql.sql"}
{"event":"details","time":1611148691,"u":"94","run":"0.32","mem":"18.35","data":"Excluding: \/wp-content\/uploads\/snapshots\/"}
{"event":"details","time":1611148691,"u":"94","run":"0.32","mem":"18.35","data":"Excluding: \/wp-content\/backups\/"}
{"event":"details","time":1611148691,"u":"94","run":"0.32","mem":"18.35","data":"Excluding: \/wp-content\/cache\/supercache\/"}
{"event":"details","time":1611148691,"u":"94","run":"0.32","mem":"18.35","data":"Excluding: \/wp-content\/wfcache\/"}
{"event":"details","time":1611148691,"u":"94","run":"0.32","mem":"18.35","data":"Excluding: \/wp-content\/wflogs\/"}
{"event":"details","time":1611148691,"u":"94","run":"0.32","mem":"18.35","data":"Excluding: \/wp-content\/cache\/"}
{"event":"details","time":1611148691,"u":"94","run":"0.32","mem":"18.35","data":"Excluding: \/wp-content\/plugins\/wordfence\/tmp\/"}
{"event":"details","time":1611148691,"u":"94","run":"0.32","mem":"18.35","data":"Excluding: \/error_log"}
{"event":"details","time":1611148691,"u":"94","run":"0.32","mem":"18.35","data":"Excluding: \/wp-admin\/error_log"}
{"event":"details","time":1611148691,"u":"94","run":"0.32","mem":"18.35","data":"Excluding: \/logs\/"}
{"event":"details","time":1611148691,"u":"94","run":"0.32","mem":"18.35","data":"Excluding: \/_wpeprivate\/"}
{"event":"details","time":1611148691,"u":"94","run":"0.32","mem":"18.35","data":"Excluding: \/wp-content\/plugins\/wpengine-snapshot\/snapshots\/"}
{"event":"details","time":1611148691,"u":"94","run":"0.32","mem":"18.35","data":"Excluding: \/ics-importer-cache\/"}
{"event":"details","time":1611148691,"u":"94","run":"0.32","mem":"18.35","data":"Excluding: \/gt-cache\/"}
{"event":"details","time":1611148691,"u":"94","run":"0.32","mem":"18.35","data":"Excluding: \/wp-config-sample.php"}
{"event":"details","time":1611148691,"u":"94","run":"0.32","mem":"18.35","data":"Excluding: \/wp-content\/managewp\/"}
{"event":"details","time":1611148691,"u":"94","run":"0.32","mem":"18.35","data":"Excluding: \/wp-content\/upgrade\/"}
{"event":"details","time":1611148691,"u":"94","run":"0.32","mem":"18.35","data":"Excluding: \/wp-content\/uploads\/backupbuddy_backups\/"}
{"event":"details","time":1611148691,"u":"94","run":"0.32","mem":"18.35","data":"Excluding: \/wp-content\/uploads\/pb_backupbuddy\/"}
{"event":"message","time":1611148691,"u":"94","run":"0.32","mem":"18.35","data":"Excluding archives directory and additional directories defined in settings. 30 total."}
{"event":"details","time":1611148691,"u":"94","run":"0.32","mem":"18.35","data":"Zip archive creation compression enabled based on settings."}
{"event":"details","time":1611148691,"u":"94","run":"0.32","mem":"18.35","data":"Zip archive creation symbolic links will be ignored based on settings."}
{"event":"details","time":1611148691,"u":"94","run":"0.32","mem":"18.35","data":"Zip archive creation actionable warnings will be ignored based on settings."}
{"event":"details","time":1611148691,"u":"94","run":"0.32","mem":"18.36","data":"pclzip command arguments: List: \/var\/www\/html\/wp-content\/uploads\/backupbuddy_temp\/...;77003;\/var\/www\/html\/wp-content\/uploads\/backupbuddy_temp\/4vnkfe4xjo\/;77020;5;78003;\u0000lambda_1"}
{"event":"details","time":1611148692,"u":"04","run":"0.41","mem":"18.36","data":"Zip process exit code: 0"}
{"event":"details","time":1611148692,"u":"04","run":"0.41","mem":"18.36","data":"Zip process reported: 0 warnings"}
{"event":"message","time":1611148692,"u":"04","run":"0.41","mem":"18.36","data":"Zip Archive file successfully created with no errors (any actionable warnings ignored by user settings)."}
{"event":"details","time":1611148692,"u":"04","run":"0.41","mem":"18.36","data":"Zip Archive file size: 362344 bytes, owned by user:group 33:33 with permissions 0644"}
{"event":"details","time":1611148692,"u":"04","run":"0.41","mem":"18.36","data":"The pclzip method for ZIP was successful."}
{"event":"details","time":1611148692,"u":"04","run":"0.41","mem":"18.34","data":"Moving Zip Archive file to local archive directory."}
{"event":"details","time":1611148692,"u":"04","run":"0.41","mem":"18.34","data":"Zip Archive file moved to local archive directory."}
{"event":"message","time":1611148692,"u":"04","run":"0.41","mem":"18.34","data":"Backup ZIP file successfully created."}
{"event":"details","time":1611148692,"u":"04","run":"0.41","mem":"18.34","data":"Chmod of ZIP file to 0644 succeeded."}
{"event":"details","time":1611148692,"u":"04","run":"0.41","mem":"18.34","data":"Database kicker loaded. Database object class: `wpdb` with database of type `mysqli`."}
{"event":"details","time":1611148692,"u":"04","run":"0.41","mem":"18.34","data":"Pinging mysqli."}
{"event":"details","time":1611148692,"u":"04","run":"0.41","mem":"18.34","data":"Database Server connection status verified."}
{"event":"details","time":1611148692,"u":"04","run":"0.41","mem":"18.36","data":"Fileoptions `4vnkfe4xjo.txt` saved. 8552 bytes written."}
{"event":"details","time":1611148692,"u":"04","run":"0.41","mem":"18.34","data":"Finished function `backup_zip_files`. Peak memory usage: 24.682 MB with BackupBuddy v8.7.2.0"}
{"event":"finishFunction","time":1611148692,"u":"04","run":"0.41","mem":"18.34","data":"{\"function\":\"backup_zip_files\"}"}
{"event":"details","time":1611148692,"u":"04","run":"0.41","mem":"18.34","data":"-----"}
{"event":"details","time":1611148692,"u":"04","run":"0.41","mem":"18.34","data":"Classic mode; skipping cron & triggering next step."}
{"event":"details","time":1611148692,"u":"04","run":"0.41","mem":"18.36","data":"Fileoptions `4vnkfe4xjo.txt` saved. 8576 bytes written."}
{"event":"details","time":1611148692,"u":"04","run":"0.41","mem":"18.34","data":"Found next step to run: `integrity_check`."}
{"event":"details","time":1611148692,"u":"04","run":"0.41","mem":"18.34","data":"Peak memory usage: 24.682 MB"}
{"event":"details","time":1611148692,"u":"04","run":"0.41","mem":"18.34","data":"-----"}
{"event":"details","time":1611148692,"u":"04","run":"0.41","mem":"18.34","data":"Starting step function `integrity_check`. Attempt #1."}
{"event":"startFunction","time":1611148692,"u":"04","run":"0.41","mem":"18.34","data":"{\"function\":\"integrity_check\",\"title\":\"Verifying backup file integrity\"}"}
{"event":"milestone","time":1611148692,"u":"04","run":"0.41","mem":"18.34","data":"start_integrity"}
{"event":"message","time":1611148692,"u":"04","run":"0.41","mem":"18.34","data":"Scanning and verifying backup file integrity."}
{"event":"details","time":1611148692,"u":"04","run":"0.41","mem":"18.34","data":"Starting integrity check on `\/var\/www\/html\/wp-content\/uploads\/backupbuddy_backups\/backup-hellosaks_com-2021_01_20-01_18pm-db-4vnkfe4xjo.zip`."}
{"event":"details","time":1611148692,"u":"04","run":"0.41","mem":"18.34","data":"Started backup_integrity_check() function for `4vnkfe4xjo` for file `\/var\/www\/html\/wp-content\/uploads\/backupbuddy_backups\/backup-hellosaks_com-2021_01_20-01_18pm-db-4vnkfe4xjo.zip`."}
{"event":"details","time":1611148692,"u":"04","run":"0.41","mem":"18.34","data":"Determining backup type of file `backup-hellosaks_com-2021_01_20-01_18pm-db-4vnkfe4xjo.zip`"}
{"event":"details","time":1611148692,"u":"04","run":"0.41","mem":"18.34","data":"Detecting backup type if possible."}
{"event":"details","time":1611148692,"u":"04","run":"0.41","mem":"18.34","data":"Detected backup type as `db` via filename."}
{"event":"details","time":1611148692,"u":"04","run":"0.41","mem":"18.34","data":"Resetting backup integrity stats for backup with serial `4vnkfe4xjo`."}
{"event":"details","time":1611148692,"u":"04","run":"0.41","mem":"18.34","data":"Verifying comment in zip archive."}
{"event":"details","time":1611148692,"u":"04","run":"0.41","mem":"18.35","data":"ZipArchive retrieved comment in file \/var\/www\/html\/wp-content\/uploads\/backupbuddy_backups\/backup-hellosaks_com-2021_01_20-01_18pm-db-4vnkfe4xjo.zip"}
{"event":"details","time":1611148692,"u":"04","run":"0.42","mem":"18.34","data":"NOTE: It is normal to see several \"File not found\" messages in the next several log lines."}
{"event":"details","time":1611148692,"u":"04","run":"0.42","mem":"18.34","data":"Verifying DAT file in zip archive."}
{"event":"details","time":1611148692,"u":"04","run":"0.42","mem":"18.35","data":"File found (ziparchive): backupbuddy_dat.php"}
{"event":"details","time":1611148692,"u":"04","run":"0.42","mem":"18.34","data":"Verifying database SQL file in zip archive."}
{"event":"details","time":1611148692,"u":"04","run":"0.42","mem":"18.34","data":"BackupBuddy v5.0+ format database detected."}
{"event":"details","time":1611148692,"u":"04","run":"0.42","mem":"18.34","data":"Forcing to a single db_1.sql file was NOT enabled for this backup."}
{"event":"details","time":1611148692,"u":"04","run":"0.42","mem":"18.34","data":"Database-only type backup."}
{"event":"details","time":1611148692,"u":"04","run":"0.42","mem":"18.35","data":"File not found (ziparchive): db_1.sql"}
{"event":"details","time":1611148692,"u":"04","run":"0.42","mem":"18.34","data":"PHP based database dump type."}
{"event":"details","time":1611148692,"u":"04","run":"0.42","mem":"18.35","data":"File found (ziparchive): wp_commentmeta.sql"}
{"event":"details","time":1611148692,"u":"04","run":"0.42","mem":"18.35","data":"File found (ziparchive): wp_comments.sql"}
{"event":"details","time":1611148692,"u":"04","run":"0.42","mem":"18.35","data":"File found (ziparchive): wp_links.sql"}
{"event":"details","time":1611148692,"u":"04","run":"0.42","mem":"18.35","data":"File found (ziparchive): wp_options.sql"}
{"event":"details","time":1611148692,"u":"04","run":"0.42","mem":"18.35","data":"File found (ziparchive): wp_postmeta.sql"}
{"event":"details","time":1611148692,"u":"05","run":"0.42","mem":"18.35","data":"File found (ziparchive): wp_posts.sql"}
{"event":"details","time":1611148692,"u":"05","run":"0.42","mem":"18.35","data":"File found (ziparchive): wp_revslider_css.sql"}
{"event":"details","time":1611148692,"u":"05","run":"0.42","mem":"18.35","data":"File found (ziparchive): wp_revslider_css_bkp.sql"}
{"event":"details","time":1611148692,"u":"05","run":"0.42","mem":"18.35","data":"File found (ziparchive): wp_revslider_layer_animations.sql"}
{"event":"details","time":1611148692,"u":"05","run":"0.42","mem":"18.35","data":"File found (ziparchive): wp_revslider_layer_animations_bkp.sql"}
{"event":"details","time":1611148692,"u":"05","run":"0.42","mem":"18.35","data":"File found (ziparchive): wp_revslider_navigations.sql"}
{"event":"details","time":1611148692,"u":"05","run":"0.42","mem":"18.35","data":"File found (ziparchive): wp_revslider_navigations_bkp.sql"}
{"event":"details","time":1611148692,"u":"05","run":"0.42","mem":"18.35","data":"File found (ziparchive): wp_revslider_sliders.sql"}
{"event":"details","time":1611148692,"u":"05","run":"0.42","mem":"18.35","data":"File found (ziparchive): wp_revslider_sliders_bkp.sql"}
{"event":"details","time":1611148692,"u":"05","run":"0.42","mem":"18.35","data":"File found (ziparchive): wp_revslider_slides.sql"}
{"event":"details","time":1611148692,"u":"05","run":"0.42","mem":"18.35","data":"File found (ziparchive): wp_revslider_slides_bkp.sql"}
{"event":"details","time":1611148692,"u":"05","run":"0.42","mem":"18.35","data":"File found (ziparchive): wp_revslider_static_slides.sql"}
{"event":"details","time":1611148692,"u":"05","run":"0.42","mem":"18.35","data":"File found (ziparchive): wp_revslider_static_slides_bkp.sql"}
{"event":"details","time":1611148692,"u":"05","run":"0.42","mem":"18.35","data":"File found (ziparchive): wp_term_relationships.sql"}
{"event":"details","time":1611148692,"u":"05","run":"0.42","mem":"18.35","data":"File found (ziparchive): wp_term_taxonomy.sql"}
{"event":"details","time":1611148692,"u":"05","run":"0.42","mem":"18.35","data":"File found (ziparchive): wp_termmeta.sql"}
{"event":"details","time":1611148692,"u":"05","run":"0.42","mem":"18.35","data":"File found (ziparchive): wp_terms.sql"}
{"event":"details","time":1611148692,"u":"05","run":"0.42","mem":"18.35","data":"File found (ziparchive): wp_usermeta.sql"}
{"event":"details","time":1611148692,"u":"05","run":"0.42","mem":"18.35","data":"File found (ziparchive): wp_users.sql"}
{"event":"details","time":1611148692,"u":"05","run":"0.42","mem":"18.34","data":"Retrieving zip scan log."}
{"event":"details","time":1611148692,"u":"05","run":"0.42","mem":"18.34","data":"Calculating integrity scan status,"}
{"event":"details","time":1611148692,"u":"05","run":"0.42","mem":"18.34","data":"Status: `Pass`. Description: ``."}
{"event":"details","time":1611148692,"u":"05","run":"0.42","mem":"18.34","data":"Getting file details such as size, timestamp, etc."}
{"event":"details","time":1611148692,"u":"05","run":"0.42","mem":"18.35","data":"Saving backup file integrity check details."}
{"event":"details","time":1611148692,"u":"05","run":"0.42","mem":"18.37","data":"Fileoptions `4vnkfe4xjo.txt` saved. 9180 bytes written."}
{"event":"milestone","time":1611148692,"u":"05","run":"0.42","mem":"18.35","data":"finish_integrity"}
{"event":"details","time":1611148692,"u":"05","run":"0.42","mem":"18.37","data":"Fileoptions `4vnkfe4xjo.txt` saved. 9208 bytes written."}
{"event":"details","time":1611148692,"u":"05","run":"0.42","mem":"18.35","data":"Finished function `integrity_check`. Peak memory usage: 24.682 MB with BackupBuddy v8.7.2.0"}
{"event":"finishFunction","time":1611148692,"u":"05","run":"0.42","mem":"18.35","data":"{\"function\":\"integrity_check\"}"}
{"event":"details","time":1611148692,"u":"05","run":"0.42","mem":"18.35","data":"-----"}
{"event":"details","time":1611148692,"u":"05","run":"0.42","mem":"18.35","data":"Classic mode; skipping cron & triggering next step."}
{"event":"details","time":1611148692,"u":"05","run":"0.42","mem":"18.37","data":"Fileoptions `4vnkfe4xjo.txt` saved. 9232 bytes written."}
{"event":"details","time":1611148692,"u":"05","run":"0.42","mem":"18.35","data":"Found next step to run: `post_backup`."}
{"event":"details","time":1611148692,"u":"05","run":"0.43","mem":"18.35","data":"Peak memory usage: 24.682 MB"}
{"event":"details","time":1611148692,"u":"05","run":"0.43","mem":"18.35","data":"-----"}
{"event":"details","time":1611148692,"u":"05","run":"0.43","mem":"18.35","data":"Starting step function `post_backup`. Attempt #1."}
{"event":"startFunction","time":1611148692,"u":"05","run":"0.43","mem":"18.35","data":"{\"function\":\"post_backup\",\"title\":\"Cleaning up\"}"}
{"event":"message","time":1611148692,"u":"05","run":"0.43","mem":"18.35","data":"Cleaning up after backup."}
{"event":"details","time":1611148692,"u":"05","run":"0.43","mem":"18.35","data":"Removing temp data directory."}
{"event":"details","time":1611148692,"u":"05","run":"0.43","mem":"18.35","data":"Removing temp zip directory."}
{"event":"details","time":1611148692,"u":"05","run":"0.43","mem":"18.35","data":"Trimming old archives (if needed)."}
{"event":"details","time":1611148692,"u":"05","run":"0.43","mem":"18.35","data":"Trimmed 0 old archives based on settings archive limits."}
{"event":"details","time":1611148692,"u":"06","run":"0.43","mem":"18.35","data":"Building data file..."}
{"event":"details","time":1611148692,"u":"06","run":"0.44","mem":"18.37","data":"ziparchive listed file contents (\/var\/www\/html\/wp-content\/uploads\/backupbuddy_backups\/backup-hellosaks_com-2021_01_20-01_18pm-db-4vnkfe4xjo.zip)"}
{"event":"details","time":1611148692,"u":"06","run":"0.44","mem":"18.37","data":"Zip Archive file size: 362344 bytes, owned by user:group 33:33 with permissions 0644"}
{"event":"details","time":1611148692,"u":"06","run":"0.44","mem":"18.37","data":"Compressing data file..."}
{"event":"details","time":1611148692,"u":"06","run":"0.44","mem":"18.37","data":"Generating data file..."}
{"event":"details","time":1611148692,"u":"06","run":"0.44","mem":"18.36","data":"Data file created successfully."}
{"event":"details","time":1611148692,"u":"06","run":"0.44","mem":"18.36","data":"Backup data file created successfully."}
{"event":"details","time":1611148692,"u":"06","run":"0.44","mem":"18.38","data":"Fileoptions `4vnkfe4xjo.txt` saved. 9276 bytes written."}
{"event":"details","time":1611148692,"u":"06","run":"0.44","mem":"18.36","data":"Final ZIP file size: 354 KB"}
{"event":"archiveSize","time":1611148692,"u":"06","run":"0.44","mem":"18.36","data":"354 KB"}
{"event":"details","time":1611148692,"u":"07","run":"0.44","mem":"18.36","data":"Updating statistics for last backup completed and number of edits since last backup."}
{"event":"details","time":1611148692,"u":"07","run":"0.44","mem":"18.30","data":"Cleaning up any old temporary zip directories in: `\/var\/www\/html\/wp-content\/uploads\/backupbuddy_temp\/`. If no recent backups then the temp directory will also be purged."}
{"event":"message","time":1611148692,"u":"07","run":"0.44","mem":"18.30","data":"Finished cleaning up."}
{"event":"archiveInfo","time":1611148692,"u":"07","run":"0.44","mem":"18.31","data":"{\"file\":\"backup-hellosaks_com-2021_01_20-01_18pm-db-4vnkfe4xjo.zip\",\"url\":\"https:\\\/\\\/hellosaks.com\\\/wp-admin\\\/admin-ajax.php?action=pb_backupbuddy_backupbuddy&function=download_archive&backupbuddy_backup=backup-hellosaks_com-2021_01_20-01_18pm-db-4vnkfe4xjo.zip\"}"}
{"event":"details","time":1611148692,"u":"07","run":"0.44","mem":"18.32","data":"Fileoptions `4vnkfe4xjo.txt` saved. 9312 bytes written."}
{"event":"details","time":1611148692,"u":"07","run":"0.44","mem":"18.30","data":"Finished function `post_backup`. Peak memory usage: 24.682 MB with BackupBuddy v8.7.2.0"}
{"event":"finishFunction","time":1611148692,"u":"07","run":"0.44","mem":"18.30","data":"{\"function\":\"post_backup\"}"}
{"event":"details","time":1611148692,"u":"07","run":"0.44","mem":"18.30","data":"-----"}
{"event":"details","time":1611148692,"u":"07","run":"0.44","mem":"18.30","data":"No more backup steps remain. Finishing..."}
{"event":"details","time":1611148692,"u":"07","run":"0.44","mem":"18.32","data":"Fileoptions `4vnkfe4xjo.txt` saved. 9332 bytes written."}
{"event":"startFunction","time":1611148692,"u":"07","run":"0.44","mem":"18.30","data":"{\"function\":\"backup_success\",\"title\":\"Backup completed successfully.\"}"}
{"event":"finishFunction","time":1611148692,"u":"07","run":"0.44","mem":"18.30","data":"{\"function\":\"backup_success\"}"}
{"event":"details","time":1611148692,"u":"07","run":"0.44","mem":"18.30","data":"Closing & unlocking fileoptions."}
{"event":"details","time":1611148692,"u":"07","run":"0.45","mem":"18.31","data":"Completed step function `post_backup`."}
{"event":"details","time":1611148692,"u":"07","run":"0.45","mem":"18.30","data":"Completed step function `integrity_check`."}
{"event":"details","time":1611148692,"u":"07","run":"0.45","mem":"18.30","data":"Completed step function `backup_zip_files`."}
{"event":"details","time":1611148692,"u":"07","run":"0.45","mem":"18.30","data":"Completed step function `backup_create_database_dump`."}
{"event":"details","time":1611148692,"u":"07","run":"0.45","mem":"18.30","data":"Completed step function `backup_create_database_dump`."}
{"event":"details","time":1611148692,"u":"07","run":"0.45","mem":"18.30","data":"Completed step function `backup_create_database_dump`."}
{"event":"details","time":1611148694,"u":"41","run":"0.09","mem":"17.38","data":"Loading fileoptions data instance #29..."}
{"event":"details","time":1611148694,"u":"41","run":"0.09","mem":"17.40","data":"Fileoptions load using 0.02 MB of memory."}
{"event":"details","time":1611148694,"u":"41","run":"0.09","mem":"17.40","data":"--- New PHP process."}
{"event":"details","time":1611148694,"u":"41","run":"0.09","mem":"17.40","data":"Completed backup final ZIP file size: 354 KB"}
{"event":"archiveSize","time":1611148694,"u":"41","run":"0.09","mem":"17.40","data":"354 KB"}
{"event":"message","time":1611148694,"u":"41","run":"0.09","mem":"17.40","data":"Backup successfully completed in 1 second with BackupBuddy v8.7.2.0. Trigger: `manual`."}
{"event":"milestone","time":1611148694,"u":"41","run":"0.09","mem":"17.40","data":"finish_backup"}
{"event":"message","time":1611148694,"u":"41","run":"0.09","mem":"17.64","data":"Pong! Server replied."}
